plu_no,description,category,cost
1200000013,PEPSI CAN 12 OZ               ,,
1070080722,PAYDAY CANDY                ,,
1200000130,DIET PEPSI 20 OZ              ,,
1200000129,PEPSI 20 OZ                   ,,
1200000085,MOUNTAIN DEW CAN 20 OZ        ,,
1200000131,MOUNTAIN DEW 20 OZ            ,,
1200000134,DIET MOUNTAIN DEW  20 OZ      ,,
1230000012,WINSTON RED FF BOX PACK       ,,
1230000019,WINSTON GOLD BOX PACK         ,,
1230000020,SALEM 85 BOX MEN PACK         ,,
1230000022,SALEM 100 BX MEN PACK         ,,
1230000024,SALEM GOLD BX 83 PACK         ,,
1230000026,SALEM SLIM 100 BX             ,,
1230000059,WINSTON GOLD BOX 100          ,,
1230026655,WINSTON RED FF 100 BOX PACK   ,,
1254661531,TRIDENT-VUP SPEARMINT         ,,
1254661556,TRIDENT-GUM BUBBLE GUM        ,,
1254667521,TRIDENT-VUP STRAWBERRY        ,,
1254691552,BUBBLICIOUS SOUR APPLE        ,,
1420000069,CHARM BLO POP AST.100         ,,
1900000223,LIFE SAVERS  WILD CHERRY      ,,
2200000171,WRIG GUM SPEARMINT            ,,
2200000172,WRIG GUM DOUBLEMINT           ,,
2200000173,WRIG GUM JUICY FRUIT          ,,
2200000174,WRIG GUM BIG RED              ,,
2200000178,WRIG GUM WINTERFRESH          ,,
2200000486,Trident Orbit Pepermint 12 cnt,,
2200000489,ORBIT BUBBLEMINT              ,,
2200000665,Wrigleys Spearmint Slim Pk 10 pc,,
2200000666,Wrigleys Double Mint 10  pcs  ,,
2200000669,Trident Original Winterfresh 12,,
2200000838,WRIG EXTRA FRT SWT WATERMLN   ,,
2200000845,WRIG EXTRA CLASSIC BUBBLE     ,,
2200000899,Trident Extra Spearmint 12 cnt,,
2200001209,WRIG ORBIT REMIX STRWBRY      ,,
2260064203,Trojan Magnum Condoms         ,,
2260092620,Trojan Magnum Ultrathin Condom,,
2260094050,Trojan Magnum Ultra Ribbed Condo,,
2260097320,TROJAN-HER PLEASURE SENSATIONS (,,
2500005801,20 OZ MM LEMONADE             ,,
2500005802,20 OZ MM FRUIT PUNCH          ,,
2500005886,MINUTE MAID  PINK LEMONADE 20OZ,,
2610000573,NEWPORT BOX 100S PACK         ,,
2610000575,NEWPORT BOX PACK              ,,
2610000580,NEWPORT MENTHOL BLUE BOX 100S ,,
2610000585,NEWPORT GOLD 100 SOFT         ,,
2620010192,SLIM JIM-ORIGINAL STICKS PRE-PAI,,
2620047160,ANDY CAPPS CHEDDAR FRIES      ,,
2620047161,ANDY CAPPS HOT FRIES          ,,
2720000252,KOOL FILTER BX PACK           ,,
2720000253,KOOL soft fillter             ,,
2720000559,KOOL BOX 100 PACK             ,,
2720000862,PALL MALL BLUE 100 BX PACK    ,,
2720000867,PALL MALL RED FF 100 BX PACK  ,,
2800001077,BABY RUTH                     ,,
2820000264,MARLBORO BLEND NO. 27 BX PACK ,,
2820000303,MARLBORO SMOOTH 100 BX PACK   ,,
2820000323,MARLBORO SMOOTH BX PACK       ,,
2820000357,Marlboro Box                  ,,
2820000361,MARLBORO MENTHOL BX PACK      ,,
2820000364,Marlboro Men box 100          ,,
2820000368,MARLBORO RED LABEL BOX PACK   ,,
2820000401,MARLBORO MENTHOL GOLD PK BX PACK,,
2820000465,MARLBORO GOLD 100 BX PACK     ,,
2820000471,MARLBORO MENTHOL GOLD 100 BX PAC,,
2820000477,MARLBORO SILVER BX PACK       ,,
2820000478,Marlboro ult box 100          ,,
2820000784,PARLIAMENT LIGHT BOX          ,,
2820000791,PARLIAMENT LIGHT 100 BOX      ,,
2900007158,PLNT JUMBO BLOCK              ,,
3400000054,Kit Kat White                 ,,
3400000239,Hershey Cookies and Cream 36 cnt,,
3400000241,Hershey Almond Joy 36 cnt     ,,
3400000246,KIT KAT                       ,,
3400000248,REESE PIECES                  ,,
3400000320,ALMOND JOY                    ,,
3400000440,Reeses Cup 36 cnt Hershey     ,,
3400000502,TWIZZLER STRAWBERRY           ,,
3400000764,BREATHSAVER ROLL PPRMNT       ,,
3910106762,JOHNSENS-STARTING FLUID       ,,
4000000031,M N M MILK CHOCOLATE          ,,
4000000032,M and M s  48 cnt mars        ,,
4000000051,STARBUST 36 CNT 2.07 OZ      ,,
4000000156,STARBURST TROPICAL            ,,
4000000160,SKITTLES 36 Cnt  2.17 Oz     ,,
4000000162,SKITTLES WILD BERRY           ,,
4000000163,Skittles Tropical             ,,
4000000435,TWIX 36 cnt mars              ,,
4000000694,MILKY WAY SIMPLY CARAMEL      ,,
4180026000,WELCHS ORANGE JUICE           ,,
4180042900,WELCHS CRANBERRY JUICE        ,,
4900000044,COKE CLASSIC 20 oz            ,,
4900000132,Sprite 12oz can               ,,
4900000634,COKE CAN 12 OZ                ,,
4900000764,Sprite 20oz                   ,,
4900001801,20 OZ CHERRY COKE             ,,
4900001916,Fanta Orange 20oz             ,,
4900002820,Fanta Pineapple 20oz          ,,
4900004523,32 OZ POWERADE GRAPE          ,,
4900004573,32 OZ POWERADE LEMON LIME     ,,
4900004574,32 OZ POWERADE FRUIT PUNCH    ,,
4900004579,32 OZ POWERADE ORANGE         ,,
5200032481,20 OZ GATORADE WM COOL BLUE   ,,
5200032866,20 OZ GATORADE WM FRT PNCH    ,,
5400020042,SCOTT TOILET TISSUE-WHITE     ,,
7013700018,BLACK N MILD TIP REG          ,,
7013700023,BLACK N MILD TIP WINE         ,,
7013700525,BLACK N MILD WOOD TIP REG     ,,
7013700529,BLACK N MILD WD TIP WINE      ,,
7015800005,KRAZY GLUE-TUBE SINGLE        ,,
7033000002,BIC Lighter Small             ,,
7033060006,BIC Lighter Big               ,,
7046209850,SOUR PATCH KIDS               ,,
7046254250,SWEDISH FISH-ORIGINAL RED     ,,
7084781116,MONSTER 16 OZ                 ,,
7115365148,STP-OIL TREATMENT             ,,
7161030189,BACKWOODS-WILD N MILD (Mustard),,
7161030192,BACKWOODS SWEET AROMATIC 5PACK,,
7301021409,TAMPAX REGULAR TAMPON         ,,
7339000011,MENTOS ROLL MINT              ,,
7339000201,AIRHEADS CANDY CHERRY         ,,
7339000203,AIRHEADS CANDY WATERMELON     ,,
7339000220,AIRHEADS CANDY BLUE RASPBRRY  ,,
7339002642,MENTOS ROLL RAINBOW           ,,
7617110189,LITTLE TREES-AIR FRESHENERS - Ca,,
7800000402,HAWAIIAN PUNCH 20OZ           ,,
7800005240,AW Rootbeer 20oz              ,,
7800005246,Root Beer 2 lts               ,,
7800011340,Sunkist orange 20oz           ,,
7800015246,2 L CANADA DRY GINGER ALE CONTOU,,
7922301200,GAS CAN SPILL PROOF 1 GALLON  ,,
7922302300,GAS CAN SPILL PROOF 2 GALLON  ,,
9060000016,USA GOLD RED BOX              ,,
9060000017,USA GOLD - GOLD BOX           ,,
31254662368,HALLS-STRAWBERRY COUGH DROPS  ,,
31254662752,HALLS DEFENSE-VITAMIN C ASSORTED,,
31254662771,HALLS-CHERRY                  ,,
31254662872,HALLS HONEY LEMON CGH DROP    ,,
31254662970,HALLS-MENTHO-LYPTUS           ,,
61126999100,8 OZ RED BULL ENERGY          ,,
61300871526,23 OZ ARIZONA GRN TEA PP      ,,
61300871929,ARIZONA-GRAPEADE - 99c Can    ,,
67811225418,CLEAR EYES-REDNESS RELIEF EYE DR,,
71751901101,AL CAPONE-SWEET NON-FILTER - Bow,,
71751912111,AL CAPONE-SLIM RUM - Bowl     ,,
71941050001,5 Hour Red Energy             ,,
71941070001,5 Hour Xtra Energy            ,,
71941080001,5 HOUR ENERGY POMEGRANATE     ,,
82791207816,STIFF NIGHTS-MALE SEXUAL STIMULA,,
89734300106,EXTENZE BLUE                  ,,
1200000359,PEPSI WILD CHERRY 20 OZ,,
1254631501,DNTYN IC SPRMNT SPL,,
1254631509,Dentyne fire,,
1254660034,TRIDENT LYRS CHERRY/LIME,,
2200000279,Orbit wintermint,,
2200001395,WRIG ORBIT DBL PAK SPEARMINT,,
2590022726,SWISHER sweet CIGARILLO 2 for,,
2590022727,Swisher sweet  Grape 2 for 99,,
2590022731,swisher sweet tropical fusion,,
2610000128,MAVERICK MENTHOL BOX,,
2610000130,MAVERICK MENTHOL GOLD BX 100,,
2610000145,MAVERICK MENTHOL BOX 100,,
2610000153,Maverick Red 100 box,,
2610000155,Maverick gold box 100,,
2610000372,NEWPORT M GOLD BX100,,
2610000376,NEWPORT GOLD BX,,
2610000377,NEWPORT 100 soft,,
2610000378,NEWPORT KINGS,,
2610000383,NEWPORT MENTHOL BLUE BOK,,
2610000653,MAVERICK SILVER BOX 100,,
2610000656,NEWPORT RED BOX,,
2610000657,NEWPORT RED 100 BOX,,
2610000668,NEWPORT SELECT SMOOTH 100 BOX,,
2610000670,NEWPORT SELECT SMOOTH BOX,,
2610000874,MAVERICK RED BOX,,
2610000884,MAVERICK GOLD BX,,
2720000389,Pall Mall Green Box 100  -- 50,,
2720000391,Pall Mall SAV Red 100 Box --50,,
2720034740,PALLMALL BLK MEN 100 $.50,,
2800065226,LAFFY TAFFY ROPE-BANANA 3/99c,,
2800077896,LAFFY TAFFY ROPE-SOUR APPLE 3/,,
2820000363,MARLBORO 100 BOX,,
2820000384,MARLBORO GOLD KG BOX,,
2840007844,SABRITOS PNTS JAL,,
3500030909,COLGATE TOOTH PASTE,,
3600001850,KOTEX LIGHTDAYS,,
3700012445,SECRET WD SLD SHWR FRSH,,
4000042206,MILKY WAY MILK CHOC,,
4000042208,THREE MUSKETERRS,,
4000042431,SNICKERS BAR,,
4000045984,DOVE MILK CHOC SNGL,,
4000045985,DOVE DARK SINGLES,,
4138800009,Blistex,,
4142000377,LEMON HEAD 25c REDHEAD CH,,
4142000379,CHERRYHEAD 25c - 24ct,,
4142000381,LEMON HEAD 25c - 24ct,,
4142000382,REDHOTS,,
4142000383,JAW BUSTERS,,
4142000385,GrapeHead Fruit Candy,,
4142000386,Berry Chewy Lemon-Head,,
4210000344,Gloves,,
4740030337,Gillette Shave Gel,,
4900002627,Fanta Grape 20oz,,
4900004782,SPRITE-MEXICAN,,
4900003343,SPRITE OZ CAN,,
7013710010,BLACK and MILD CHERRY VANILLA,,
7013710018,Black and Mild Regular Upright,,
7013710042,BLACK and MILD- CREAM UP right,,
7013710088,Black and Mild Apple 25 cnt,,
7013710523,BLACK N MILD  WINE up right,,
7013710525,BlackandMild Reg WoodTip  25 c,,
7013710529,BLACK and MILD WINE WOOD TIP,,
7013710538,BLACK and MILD-CIGARILLOS TIP,,
7013711127,Black and mild  JAZZ,,
7013711129,BLACK and MILD JAZZ WOOD TIP,,
7013721019,BLACK and MILD-CIGARILLOS TIP,,
7023500035,Phillies Blunt Reg Box 55cnt,,
7023500035,PHILLIES BLUNT-CHOCOLATE singl,,
7023500038,PHILLIES BLUNT-STRAWBERRY  sin,,
7097044837,MIKE and IKE RED,,
7097044993,MIKE IKE 25c ORIGINAL FRU,,
7097044994,HOT TAMALES,,
7097044996,MIKE IKE 25c JOLLY-JOES -,,
7115378573,STP GAS TREATMENT,,
7161030186,BACKWOODS HONEY BERRY 5PACK,,
7161030198,Backwoods Sweet Aromatic Singl,,
7161030203,BACKWOODS HONEY BERRY,,
7161049853,Dutch Masters 3 pck chocolate,,
7161049945,DUTCH MASTER-CIGARILLOS MASTER,,
7161049949,DUTCH MASTER-CIGARILLOS MASTER,,
7161049953,DUTCH MASTER-CIGARILLOS MASTER,,
7301031409,TAMPAX-SUPER TAMPONS (Green),,
7339000014,MENTOS-ROLL CHEWY CINNAMON,,
7339000202,AIR HEADS-ORANGE,,
7339000221,AIRHEADS CANDY WHT MYSTRY,,
7339000411,AIRHEADS CANDY PINK LEMONADE,,
7339001054,AIR HEAD STRAWBERRY and WATERM,,
7339001056,AIR HEADS PINK LEMONADE and OR,,
7446000001,EZi woders Double Wide,,
7617109017,LIttle TREE COCO,,
7617110155,LITTLE TREES-AIR FRESHENERS BL,,
7617110228,LITTLE TREES MORNNG FRSH,,
7617110312,LITTLE TREE STRAWBERRY 1 PK,,
7618316080,SNAPPLE-GREEN TEA JUICE,,
7717051000,TOP-CIG. PAPER,,
7800000114,12 Oz Cans Ginger Ale,,
7800000274,SUNKIST 12oz,,
7800006072,SUNKIST ORANGE 16 OZ CAN,,
7800014846,2 L CANADA DRY GINGERALE DIET,,
7800015240,CANADA DRY GINGER ALE 20 oz,,
7922305600,MIDWEST CAN-GAS CAN With SPILL,,
7940050090,Dove deodrant,,
7956711010,WD 40-,,
8786009893,Blunteffects  Incense,,
8939615297,mistic mango carrot,,
9060000010,USA GOLD GOLD BOX100,,
9060000011,USA GOLD RED BOX 100,,
9060000012,USA GOLD MENTHOL BOX,,
9060000014,USA GOLD MENTHOL BOX 100,,
9060000038,FORTUNA RED BOX,,
9060000043,FORTUNA MENTHOL BOX GREEN,,
9060000089,FORTUNA RED BOX 100,,
9060000090,FORTUNA LIGHTS 100 BOX BLUE,,
9300001101,Chap.Ice Lip Balm,,
9392252007,NOW and LATER,,
9392252010,Now and Later Grape,,
30045044910,TYLENOL EXTRA STRENGTH-PAIN RE,,
30045048152,MOTRIN-PAIN RELIEVER/FEVER RED,,
30521022127,Q-TIPS-COTTON SWABS PURSE PACK,,
30573015489,ADVIL-PAIN RELIEVER/FEVER REDU,,
30573016455,ADVIL PM,,
32390001076,VICKS-VAPODROPS COUGH RELIEF C,,
32586653088,ALEVE,,
38004091700,STAYFREE,,
38137004754,J J BAND AID TRAVEL PACK4754,,
61070811904,LUXURY LITES ELECTRONIC HOOKAH,,
61300871562,ARIZONA-ORANGEADE - 99c Can,,
61300872569,20 OZ ARIZONA LEMON TEA TB,,
61300872571,20 OZ ARIZONA GREEN TEA TB,,
61300872573,20 OZ ARIZONA SWEET TEA,,
61300872575,20 OZ ARIZONA FRUIT PUNCH TB,,
61300872577,20 OZ ARIZONA WATERMELON TB,,
61300872579,20 OZ ARIZONA MUCHO MANGO TB,,
61300872581,20 OZ ARIZONA H/H TEA lemonade,,
61300873543,ARIZONA KIWI STRAWBERRY CAN,,
63622704822,Tie down Durag,,
65570801445,PM PAIN RELIEF 34/2pk [Pr,,
65570801460,ALLERGY RELIEF 30/2pk,,
65833100795,BAYER-ASPIRIN PAIN RELIEVER,,
67857842145,Boss revolution $5,,
68907693652,BLUNT VILLE NATURAL DELUXE,,
70078611000,Blunt effect spray,,
70753330601,HOWES LUBRICATOR ANTI GEL DIES,,
71751901141,AL CAPONE-SWEET FILTER - Bowl,,
81645001024,HOOD WRAPS PURPLE K,,
81645001082,LIGHTER HOODWRAPS,,
81651801343,SPLITARILLOS PINEAPPLE 3/.99,,
84105800520,EDGE SENSITIVE,,
85965400200,BLU ELECTRONIC CIG MENTHOL,,
85965400201,BLU ELECTRONIC CIG  CLASSIC,,
1254600523,STRIDE SOUR PATCH KIDS        ,,
1471730907,WINDSHIELD WASH -20           ,,
2160300029,power steering fluid          ,,
2200000104,Extra Mixed Berry             ,,
2590024713,swisher sweets summer twist   ,,
2610000579,NEWPORT GOLD SOFT             ,,
2610000660,NEWPORT NON-MENTHOL GOLD BOX  ,,
2610000661,NEWPORT 100 NON-MENTHOL GOLD BOX,,
2610000666,NEWPORT BOX 100 50C off       ,,
2610000667,NEWPORT BOX $0.50             ,,
2741449706,USB CABLE -MICRO USB          ,,
2800020203,BUTTERFINGER 1.9OZ            ,,
2853412001,HERBS HOT SAUSAGE 2 for $1    ,,
3170000043,WHITE OWL BL                  ,,
3170000895,GAME VANILLA 5PK              ,,
3170004410,WHTOWLBLT                     ,,
3170004424,GAME Stright up     GREEN     ,,
3170004429,WHITEOWL                      ,,
3170004438,WHITEOWL                      ,,
3170004822,GAME Stright up  white grape  ,,
3170004917,Game pine apple               ,,
3170004920,Game Garcia y vega   Black    ,,
3170004921,Game Garcia y vega  Grape     ,,
3170004922,GAME WHITE GRAPE              ,,
3170004923,Game Blue 2/99 30 cnt         ,,
3170004924,GAME GREEN                    ,,
3170004938,GAME   Garcia y vega RED      ,,
3170004940,WO BLUE 2PK                   ,,
3170004956,Jackpot 3/99 Blue berry       ,,
3170004957,Jackpot 3/99 Watermelon       ,,
3170004958,Jackpot 3/99 Pineapple        ,,
3170004959,Jackpot 3/99 Mango            ,,
3170004978,Jackpot 3/99 Sweet            ,,
3170004988,Jackpot 3/99 White Grape      ,,
3170004990,White Owl Mango               ,,
4138510004,Peggy Lawton Oatmeal COOKIES  ,,
4138510005,Peggy Lawton Chocchip         ,,
4178000005,UTZ ORIGINAL                  ,,
4178000006,UTZ  NO SALT ADDED            ,,
4178000045,UTZ BBQ                       ,,
4178000065,UTZ SOUR CREAM ONION          ,,
4178000075,UTZ CHEDDER andSOUR CREAM     ,,
4178000085,utz RIPPLES ORIG              ,,
4178000135,utz honey bbq                 ,,
4178000165,UTZ RED HOT                   ,,
4178000195,UTZ ONION GARLIC              ,,
4900005374,FANTA ORANGE 16OZ CAN         ,,
7013711248,Black and mild  Casino        ,,
7013711249,Black and mild  Casino WOOD TIP,,
7084700507,Monster Energy green          ,,
7097044998,MIKE IKE 25c TANGY TWISTE     ,,
7097091255,Peanut Chews CHOC             ,,
7097095255,PEANUT CHEWS MILK             ,,
7161049656,DUTCH JAVA FUSION             ,,
7161049660,Dutch mint fusion             ,,
7161049668,Dutch      BerryFusion        ,,
7161049899,DUTCHSTRAW                    ,,
7161049907,DUTCH MASTER VANILLA          ,,
7161049908,DUTCH MASTER CHOCOLATE        ,,
7161049915,DATCH MASTER  GRAPE           ,,
7161050064,DUTCH MASTER green            ,,
7161050154,HOOKAH                        ,,
7217002527,PARTY MIX                     ,,
7297900417,Seagrams ginger ale 20 OZ     ,,
7339001438,Airheads grape                ,,
7572033941,Poland spring water 23.7oz    ,,
7572048127,poland spring water 16 oz     ,,
7617109005,Little tree vanillaroma       ,,
7617117121,Little Tree Bayside Breeze    ,,
7673712230,Everfresh Orange Juice        ,,
7673712232,Everfresh Apple Juice         ,,
7676811500,AIRFORCE TIRE INFLATOR        ,,
7680930010,LINDEN CHOC. CHIP COOKIES     ,,
7781714159,BACHMAN BUTTER POPCORN        ,,
7781714440,BACHMAN CHEESE POPCORN        ,,
7800006073,HAWAIIAN PUNCH                ,,
7800006098,CANADA DRY GINGER ALE 16.OZ CAN,,
8204569265,LUXURY LITES E-CIG JUICE      ,,
8640000004,Job Double Wide (Jar)         ,,
8939615626,Mistic Mango Mania            ,,
9060000015,USA GOLD NON FILTER           ,,
9492260346,BLUNT VILLE GRAPE             ,,
13810123456,STYLUS PEN                    ,,
61300873228,20oz Arizona HandH Raspberry  ,,
61300873326,20oz Arizona Sweet Apple      ,,
64453622601,DBL PLATINUM STRW KIWI        ,,
64453622611,Double Platinum Grape         ,,
64453622631,Double platinum peach         ,,
64453622641,DBL PLATINUM  WATERMELON      ,,
64453622651,DBL PLATINUM  Pinacolada      ,,
64453622661,BW COSMOPOLITAN               ,,
64453622671,BLUNT WRAP BER                ,,
64453622691,Double Platinum Wrap Apple 25 cn,,
64453622701,DOUBLE PLATINUM XO CONGNAC    ,,
64453622711,DBL PLATINUM CHOCOLATE        ,,
64453622731,DBL PLATINUM MANGO            ,,
64453622741,DBL PLATINUM WLD HONEY        ,,
64453622751,DBL PLATINUM GIN N JUICE      ,,
64453622761,DBL PLATINUM BLT WRAP WET CHERRY,,
64453622771,DBL PLTNM PRPL WRAP           ,,
64453622781,DOUBLE PLATINUM ZERO          ,,
64453622791,Double Platinum Kush          ,,
64453622801,DBL PLATINUM MOJITO           ,,
64453624831,DBL PLATINUM WHITE GRAPE      ,,
67857842142,boss revolution $2            ,,
68907693562,BLUNTVILLE CANDELA HONEY      ,,
68907693602,BLUNTVILLE BLUE BERRY         ,,
69347818416,NEON Lighter Butane          ,,
69415560201,PHONE ADOPTER                 ,,
70072925374,BLACK RHINO                   ,,
70510523900,ENTOURAGE CIGAR VANILLA       ,,
70510523940,Entourage Wine 25ct           ,,
70510572366,Entorage blue                 ,,
72628400015,NANTUCKET NECTARS APPLE       ,,
73698323327,LUXURY LITES E-CIG JUICE      ,,
78476204454,zig zag black                 ,,
78476207100,ZIGZAG PURPL                  ,,
80487915798,HOOKAH COALS                  ,,
80510694262,EARBUDS MIC                   ,,
81645001025,HOOD WRAPS  ROZAY             ,,
81645001027,HOOD WRAPS MELON              ,,
81645001032,HOOD WRAPS GREEN THUMB        ,,
81645001066,WOOD WRAPS HUSH HONEY         ,,
81935804636,ZANTAC 75 ACID REDCR BOX      ,,
81935806316,midol                         ,,
81946601007,TRIVO XOTIC LUCH              ,,
81946601048,TRIVO PURPLE                  ,,
81946601049,TRIVO PURE GOLD               ,,
81946601074,Hype blue mixx                ,,
81946601076,Hype purple reserve           ,,
81946601080,Hype white grape              ,,
81972101061,ENTOURAGE PALMA               ,,
81972101062,ENTOURAGE PINK VANILLA        ,,
81972101063,ENTOURAGE VANILLA             ,,
81972101083,ENTOURAGE CONNOISSEUR         ,,
83765413819,NYQUIL                        ,,
83765422631,PEPTO BISMOL                  ,,
85529100141,Raylicious Honey Bun          ,,
85529100142,Raylicious Honey Bun Iced     ,,
85529100164,RAYLICIOUS CANDY              ,,
85529100219,Raylicious iced strawberry cooki,,
85529100220,Raylicious chocolate chip cookie,,
85529100223,Raylicious oatmeal raisin cookie,,
85587300352,STARFIRE TROPICAL SMOOTHIE    ,,
85587300353,Hookah electronic             ,,
85809900349,BLU ELECTRONIC CIG cherry crush,,
85965400255,HOOKAH                        ,,
89864500258,TRIVO SWEET                   ,,
89864500259,TRIVO WHITE GRAPE             ,,
89864500280,TRIVO BLUEBERRY               ,,
450170,Benedryl                      ,,
450449,Tylenol  Extra Strength 50 cnt,,
1073300544,HERBS GRINDER                 ,,
2200019024,SLEEV LESS T-SHIRT            ,,
2732733333,PHONE CHARGER (I-PHONE )      ,,
2732733334,PHONE CHARGER (I-PHONE)       ,,
2732733335,PHONE CHARGER ANDROIDE        ,,
2741449702,PHONE ADOPTER                 ,,
2836328,Marlboro Box 100              ,,
3.17E+11,GAME SILVER                   ,,
4138510006,BUTTER CRUNCH COOKIES         ,,
4963406,Coke 16oz cans 24 cnt         ,,
5070049807,Generic Item-No description   ,,
510523900,Entourage Black 25 cnt        ,,
7161049876,HOOKHAS                       ,,
7248903202,TENNIS BALL                   ,,
7587790700,WORK GLOVES                   ,,
8204569256,LUXURY LITES E-CIG JUICE      ,,
8.5266E+11,spirit electronic  cigarette  ,,
9061539,USA gold non filter           ,,
1037172563,Winter Caps                   ,,
10394473,AFRICA PINLESS                ,,
1070080722,Pay Day 24 cnt Hershey        ,,
11154622,Gold Gold                     ,,
11343756,10 Africa                     ,,
11517399,011 Tiger Africa              ,,
11789212,Home liberia                  ,,
1254631241,Dentyne Ice 12 cnt            ,,
1254631509,Dentyne Fire                  ,,
1300873996,20 oz Arizona Can Grape --24 cnt,,
15627126545,NOBLE ONE $5                  ,,
15627127582,SUN AFRICA  $2                ,,
178608750,OMG                           ,,
178617931,United telecard               ,,
1935804996,Alka Seltzer Cold Plus 25 cnt ,,
1946601124,Hi Fi Sweet - 15 cnt          ,,
1946601125,Hi Fi White Grape - 15 cnt    ,,
1946601126,Hi Fi Blue 15 cnt             ,,
1946601127,Hi Fi Rus - 15 cnt            ,,
1946601128,Hi Fi Xotic --15 cnt          ,,
1946601131,Hi Fi Trotan - 15 cnt         ,,
1946601132,Hi Fi Watermelon - 15 cnt     ,,
1972101032,Blunt Vill White Grape 25     ,,
25174859009,WIN WIN $5                    ,,
25174859416,LA FRESCA $5                  ,,
25174859537,ME GUSTA $5                   ,,
25174859544,TANGO $5                      ,,
25174859929,TRIPLE 7 AFRICA $2            ,,
25174860110,NEW AFRICA 101                ,,
25174860111,NEW AFRICA 101 $5             ,,
2590022726,Swisher Sweets Red 30 cnt     ,,
2590025338,Swisher Sweets 2/99 Wild Rush ,,
2720034740,Pall Mall Black Box 100 - 50c of,,
3170004424,Game Green Box 40 count       ,,
3170004822,Game White Grape Box 40 count ,,
3170004921,Game Grape 2/99               ,,
3170005018,Game Leaf 2/99 Cognac         ,,
4000042208,3 Musketeers 36 cnt mars      ,,
4000042431,SNICKERS  48 cnt  mars        ,,
4453622641,Double Platinum Watermelon    ,,
4642624644,BOSS REVOULTION $ 2           ,,
4660766815,BOSS REVOULTION               ,,
5.00039E+12,Duracell AA Battery - 2 ct    ,,
5.00039E+12,DURACELL AAA                  ,,
5070049807,Paper Towel R and W  12 cnt   ,,
5174860094,African mamba $2              ,,
5174860102,Gold Gold $2                  ,,
5174860162,Africa Pinless $2             ,,
5.28732E+12,OMG $5                        ,,
5.32912E+12,OK AFRICA $2                  ,,
5.32932E+12,OMG $2                        ,,
5400020042,Scott Bath Tissue 36 Rolls    ,,
5529100144,Raylicious Cinnamon Bun 18pcs ,,
5529100164,Raylicious Cotton Candy       ,,
5529100192,Raylicious Nuts 2/1           ,,
6.00109E+12,AXE EXCITE                    ,,
61070814303,TALK PLUS LYCA $5             ,,
6.25843E+12,I PHONE CHARGER               ,,
62845139405,OYE $5                        ,,
6.2911E+12,Al fakher hookha flavour MINT ,,
6.2911E+12,Al fakher Hookha flavour TWO AP,,
6.2911E+12,Al fakher hookha flavour GUAVA,,
6.2911E+12,AL FAKHERA CHAR COAL          ,,
6.2911E+12,Al fakher Hookha flavour CITRUS,,
6.2911E+12,Al fakher Hookha Flavour GRAPE,,
63622700048,SINGLE EDGE BLADE             ,,
64453625601,DOUBLE PLATINUM UP andUP      ,,
67697980070,JERSEY GLOVES                 ,,
67857812802,BOSS PA and DE $2             ,,
67857813635,BOSS PA and DE $5             ,,
67954090058,MERICA socks                  ,,
68819500104,RUBBER BANDS                  ,,
6.90339E+12,COLGATE TOOTH BRUSH           ,,
6.92138E+12,BABY PACIFIER SOOTHERS        ,,
6.95688E+12,SILLY BANDZ                   ,,
70195316896,TOP TEE SOCKS                 ,,
7023500055,Phillies Blunt Chocolate Box 55,,
7161049624,Dutch Master 3 pck White Grape,,
7161049949,Dutch Master 3 pck Vanilla 20 cn,,
7161049953,Dutch Master 3 pck Green      ,,
73698323363,LUXURY LITES E-CIG JUICE      ,,
7.50106E+12,DOVE PINK/ROSA                ,,
7.50106E+12,DOVE GO FRESH                 ,,
7617110228,Air Freshner Morning Fresh 24 cn,,
7617110312,Air Freshner Strawberry 24 cnt,,
7617117121,Air Freshner - Bayside Breeze 24,,
7857842142,Boss Revolution $2            ,,
7857842145,Boss Revolution $5            ,,
81935804996,ALKA SELTZER PLUS COLD        ,,
81972101041,MAGNUM SINGLE CONDOM          ,,
81972101183,BLUNT VILLE BLUE              ,,
81972101196,GILLETTE RAZORS               ,,
83765422668,BALLONS                       ,,
85219900600,WHATS UP BLUE                 ,,
85219900601,WHATS UP GREEN                ,,
8.71256E+12,AXE ALASKA                    ,,
8.71256E+12,AXE DEEP SPACE                ,,
8.71716E+12,DOVE GO FRESH                 ,,
91643762186,DIXXON 10W 30                 ,,
96007075,DOVE BEAUTY FINISH            ,,
9734300106,Extenze Energy                ,,
84500007,ZANTAC 150                    ,,
1254600638,TRIDENT PINEAPPLE TWIST       ,,
1650054605,ALKA-SELTZER                  ,,
2200001388,Extra Sweet Orange            ,,
2200001647,starburst super fruit         ,,
2200019023,T SHIRTS                      ,,
2590023001,SWSHER Sweet   Blazing fire   ,,
2590023525,Swisher Sweet Dulce De Leche 2/9,,
2590025338,SS CIG WLD RSH 2PK            ,,
3170004997,GAME MANGO                    ,,
3170005015,game leaf sweeet aromatics    ,,
3170005016,Game leaf natural             ,,
3170005017,Game leaf wild berry          ,,
3170005018,Game leaf    Cognac           ,,
3170005036,GAME WATERMELON               ,,
3170005045,Game Leaf Blk Cherry 2pk      ,,
4126227305,WISE ONION RINGS              ,,
4126227371,WISE DIPSY DOODLES BBQ        ,,
4126227388,WISE CHEEZ DOODLES CRUNCHY CHEES,,
4126228123,WISE POPCORN HOT CHEESE       ,,
4142002061,CHEWY LEMONHEAD FIERCELY CITRUS,,
4142005306,Lemonhead Flavor Fusors       ,,
4142010110,Chewy Red Hots Mango Lime .8oz,,
4142011480,TROLLI SOUR BITES             ,,
4142011783,APPLE HEAD                    ,,
6723889119,Dove Soap ORIGINAL            ,,
7161029957,BACKWOODS wild n mild         ,,
7161029960,Bckwd Sweet 3Pk               ,,
7161030226,Bckwd Pack Bourbon            ,,
7161030229,Bckwd Bourbon Single          ,,
7161030233,Bckwd 3 Pk. Honey Bourbon     ,,
7161030239,Backwoods dark stout 5pack    ,,
7161030242,Backwoods darkstout 3pack     ,,
7161030245,BACKWOOD DARK STOUT           ,,
7161049608,Dutch Honey fusion            ,,
7161049612,DUTCH HONEY FUSION            ,,
7161049616,Dutch rum fusion              ,,
7161049624,Dutch Master white grape      ,,
7161049628,Dutch Master Sweet Green      ,,
7161049632,DUTCH MASTER-CIGARILLOS DELUXE,,
7161049636,Dutch Master Cognac           ,,
7161049640,Dutch  java fusion            ,,
7161049648,DUTCH BERRY FUSION            ,,
7161050161,HOOKAH                        ,,
7479200211,Rock Creek Fruit Punch 20oz   ,,
7479200212,Rock Creek Ginger Ale 20oz    ,,
7617117142,CAR-FRESH TROPICAL SHORES     ,,
7618300228,SNAPPLE ORANGE CARROT 16OZ    ,,
7781716210,BACHMAN JAX chedder cheese puff,,
7800002399,SUNKIST GRAPE CAN 16 OZ       ,,
7800014440,Canada dry pineapple 20 oz    ,,
7922303516,MOTOR OIL FUNNEL              ,,
7940001743,Degree DEO                    ,,
8368300150,2+2 DRY GAS                   ,,
8505100018,2 cycle engine oil            ,,
8505100031,BRAKE FLUID                   ,,
8505198201,Custom Plus Oil 5w-20         ,,
8505198202,Custom plus  5w-30 Oil        ,,
8505198203,Custom plus  10w-30 Oil       ,,
8505198204,Custome plus 10w-40 Oil       ,,
8505198209,Custom Plus  AutoTransmission oi,,
15489000051,Magnam Condom                 ,,
18368918274,PLENTY PAPER TOWEL            ,,
18368918276,Plenty PaperTowel             ,,
25174860094,AFRICA MAMBA $ 2              ,,
25174860102,GOLD GOLD $ 2                 ,,
25174860162,AFRICAN PIN LESS  $ 2         ,,
25174860164,Sierra leone                  ,,
29200590086,Torch coal BOX                ,,
30045017060,Benadryl  Allergy Singl       ,,
60157750974,Mamba is hero                 ,,
61070814302,TALK PLUS LYCA $2             ,,
61300873996,Arizona grape 20 oz           ,,
61300873998,20oz Arizona Shaq punch Pineappl,,
61300874000,20oz Arizona Shaq punch STRAWBER,,
61737591995,winter caps                   ,,
63541499967,rhino7                        ,,
65833188889,TYLENOL COLD                  ,,
67293578137,CLOSE UP TOOTH BRUSH          ,,
67455441307,ANTIFREEZE                    ,,
68907693642,LIFE STYLE SINGLE CONDOM      ,,
69415560203,FIFO CHARGER ( car adopter)   ,,
70510572426,Costa nostra                  ,,
71751900128,AL CAPONE                     ,,
71941074001,5-hour ENERGY XT/STREN STRAW/WAT,,
73698323345,LUXURY LITES E-CIG JUICE      ,,
73698323416,LUXURY LITES E-CIG JUICE      ,,
74038699859,CAR PHONE CHARGER             ,,
74038699959,Usb wall charger              ,,
81247401124,HYDRO HERBAL MIXFRUIT         ,,
81247401128,HYDRO HERBAL DOUBLE APPLE     ,,
81247401131,HYDRO HERBLE STRABERRY        ,,
81247401134,HYDRO HERBAL MANGO            ,,
81651801205,SPLITARILLOS PURPLE K         ,,
81651801342,splitarillos black            ,,
81651801400,SPLITARILLOS LOUD             ,,
81651801888,Extendos OG                   ,,
81651801910,EXTENDOS FIRE                 ,,
81651801912,extendos spita                ,,
81655524874,HEAD PHONES                   ,,
81946601075,Hype pure gold                ,,
81946601077,Hype summer                   ,,
81946601078,Hype sweet                    ,,
81946601079,Hype tropical                 ,,
81946601081,Hype xotic lush               ,,
81946601112,Hype summer love              ,,
81946601113,Hype hi voltage               ,,
81946601114,Hype fiji fusion              ,,
81946601115,Hype island zest              ,,
81972101029,BLUNTVILLE PINK BERRY         ,,
81972101031,BLUNT VILLE VANILLA           ,,
81972101032,BLUNTVILLE WHITE VANILLA      ,,
81972101060,ENTOURAGE LE PRIVE            ,,
81972101065,Glass Pipe Large 2            ,,
81972101066,Glass pipe small 1            ,,
81972101067,Glass Pipe Large 1            ,,
81972101068,Glass Pipe Medium             ,,
81972101069,Glass Pipe Large 3            ,,
81972101086,Glass pipe small 2            ,,
81972101171,BLUNT VILLE PIFF              ,,
81972101177,BLUNT VILLE PINK DIVA         ,,
81972101192,BLUNT VILLA PIFF              ,,
81972101195,BLUNT VILLE PINK DIVA         ,,
83091068801,Advantage 10w-30 Oil          ,,
83091068901,Advance 5000 10w 40           ,,
84724400140,starbuzz black grape          ,,
84724400142,starbuzz blue mist            ,,
84724400205,starbuzz passion kiss         ,,
84724400209,styarbuzz pina colada         ,,
84724400229,starbuzz safari melon dew     ,,
84724400257,starbuzz white grape          ,,
85395600535,STARFIRE STRAWBERRY MINT      ,,
85529100143,Raylicious Honey Bun          ,,
85529100191,RAYLICIOUS NUTS               ,,
85529100192,RAYLICIOUS NUTS 2 FOR $1      ,,
85529100221,Raylicious SOFT COOKIES ICED LEM,,
85587300344,STARFIRE BERRY BLAST          ,,
85587300346,STARFIRE BLUE BERRY MINT      ,,
85587300347,STARFIRE JUICY PEACH          ,,
85587300349,STARFIRE MELON MIST           ,,
85727813115,ELECTRONIC CIGARETTE          ,,
85809900350,HOOKAH                        ,,
87542200792,UNITED PINLESS $2             ,,
87542200793,UNITED PINLESS $5             ,,
88796900488,BLU CLASSIC HIGH              ,,
88796900490,BLU MENTHOL HIGH              ,,
88796900493,BLU CHERRY HIGH               ,,
88796900513,BLU PLUS RECHARGE EXP KIT     ,,
89864500298,Trivo Silver .99              ,,
91037172396,DAYQUIL                       ,,
2610000575,NEWPORT BOX PACK,,
2610000572,NEWPORT M GOLD BX100,,
2820000357,Marlboro Box     ,,
2820000363,MARLBORO 100 BOX,,
2820000384,MARLBORO GOLD KG BOX,,
2820000465,MARLBORO GOLD 100 BX PACK,,
2820000477,MARLBORO SILVER BX PACK,,
2820000478,Marlboro ult box 100,,
2820000361,MARLBORO MENTHOL BX PACK,,
2820000364,Marlboro Men box 100,,
2820000401,MARLBORO MENTHOL GOLD PK BX PACK,,
2820000471,MARLBORO MENTHOL GOLD 100 BX PACK,,
2820000954,MARLBORO SP BL MN BLUE BX PACK,,
2820000964,PALL MALL RED 100 BX FSC,,
2820000963,MARLBORO 72S BX PACK,,
2820000962,MARLBORO 72S GREEN BX PACK,,
2820000965,MARLBORO 72 GOLD BX PACK,,
2820000264,MARLBORO BLEND NO. 27 BX PACK ,,
4799585508,AMERICAN SPIRIT-FULL BODIED KINGS BOX,,
4799585509,AM SP MELLOW TASTE YELLOW PACK,,
4799585523,AMERICAN SPIRIT-ULTRA LIGHT/SMOOTH MELLOW KINGS BO,,
4799585522,AMERICAN SPIRIT-MENTHOL KINGS BOX,,
