1,NJ,1134,100 000 000 Spectacular,$10.00 ,30,0,29,1/29/2016,1/29/2016,Deactivate
2,NJ,1162,10X cash 3rd Edition,$10.00 ,30,0,29,1/29/2016,1/29/2016,Deactivate
3,NJ,1173,Hold Em Poker,$5.00 ,60,0,59,1/29/2016,1/29/2016,Deactivate
4,NJ,1175,20X Cash,$20.00 ,15,0,14,1/29/2016,1/29/2016,Deactivate
5,NJ,1180,Diamond Spectacular,$20.00 ,15,0,14,1/29/2016,1/29/2016,Deactivate
6,NJ,1181,Win For Life,$1.00 ,3,0,299,1/29/2016,1/29/2016,Deactivate
7,NJ,1182,Win For Life,$2.00 ,150,0,149,1/29/2016,1/29/2016,Deactivate
8,NJ,1183,Win For Life,$5.00 ,60,0,59,1/29/2016,1/29/2016,Deactivate
9,NJ,1192,New Jersey Hold Em,$5.00 ,60,0,59,1/29/2016,1/29/2016,Deactivate
10,NJ,1202,Super Crossword,$5.00 ,60,0,59,1/29/2016,1/29/2016,Deactivate
11,NJ,1203,Crossword,$3.00 ,100,0,99,1/29/2016,1/29/2016,Deactivate
12,NJ,1204,150 Million Cash Spectacular,$10 ,30,0,29,1/29/2016,1/29/2016,Deactivate
13,NJ,1206,Hit Dollar 50,$2.00 ,150,0,149,1/29/2016,1/29/2016,Deactivate
14,NJ,1207,High Roller,$5.00 ,60,0,59,1/29/2016,1/29/2016,Deactivate
15,NJ,1208,Quarter Million Cash Crossword,$10 ,30,0,29,1/29/2016,1/29/2016,Deactivate
16,NJ,1209,7 11 21,$1.00 ,300,0,299,1/29/2016,1/29/2016,Deactivate
17,NJ,1210,Silver Gold Platinum 7s,$5.00 ,60,0,59,1/29/2016,1/29/2016,Deactivate
18,NJ,1211,2 000 000 Mega Cash,$20 ,15,0,14,1/29/2016,1/29/2016,Deactivate
19,NJ,1212,Double Blackjack,$1.00 ,300,0,299,1/29/2016,1/29/2016,Deactivate
20,NJ,1213,Fire & Ice,$2.00 ,150,0,149,1/29/2016,1/29/2016,Deactivate
21,NJ,1134,100 000 000 Spectacular,$10.00 ,30,0,29,1/29/2016,1/29/2016,Deactivate
22,NJ,1162,10X Cash 3rd Edition,$10.00 ,30,0,29,1/29/2016,1/29/2016,Deactivate
23,NJ,1173,Hold Em Poker,$5.00 ,60,0,59,1/29/2016,1/29/2016,Deactivate
24,NJ,1175,20X Cash,$20.00 ,15,0,14,1/29/2016,1/29/2016,Deactivate
25,NJ,1180,Diamond Spectacular,$20.00 ,15,0,14,1/29/2016,1/29/2016,Deactivate
26,NJ,1181,Win for Life,$1.00 ,300,0,299,1/29/2016,1/29/2016,Deactivate
27,NJ,1182,Win for Life,$2.00 ,150,0,149,1/29/2016,1/29/2016,Deactivate
28,NJ,1183,Win for Life,$5.00 ,60,0,59,1/29/2016,1/29/2016,Deactivate
29,NJ,1192,New Jersey Hold Em,$5.00 ,60,0,59,1/29/2016,1/29/2016,Deactivate
30,NJ,1202,Super Crossword,$5.00 ,60,0,59,1/29/2016,1/29/2016,Deactivate
31,NJ,1203,Crossword,$3.00 ,100,0,99,1/29/2016,1/29/2016,Deactivate
32,NJ,1204,150 Million Cash Spectacular,$10.00 ,30,0,29,1/29/2016,1/29/2016,Deactivate
33,NJ,1206,Hit Dollar 50,$2.00 ,150,0,149,1/29/2016,1/29/2016,Deactivate
34,NJ,1207,High Roller,$5.00 ,60,0,59,1/29/2016,1/29/2016,Deactivate
35,NJ,1208,Quarter Million Crossword,$10.00 ,30,0,29,1/29/2016,1/29/2016,Deactivate
36,NJ,1209,7 11 21,$1.00 ,300,0,299,1/29/2016,1/29/2016,Deactivate
37,NJ,1210,Silver Gold Platinum 7s,$5.00 ,60,0,59,1/29/2016,1/29/2016,Deactivate
38,NJ,1211,2 000 000 Mega Cash,$20.00 ,15,0,14,1/29/2016,1/29/2016,Deactivate
39,NJ,1212,Double Blackjack,$1.00 ,300,0,299,1/29/2016,1/29/2016,Deactivate
40,NJ,1213,Fire & Ice,$2.00 ,150,0,149,1/29/2016,1/29/2016,Deactivate
41,NJ,1214,Power Play Crossword,$3.00 ,100,0,99,1/29/2016,1/29/2016,Deactivate
42,NJ,1215,Big Money Spectacular,$2.00 ,150,0,149,1/29/2016,1/29/2016,Deactivate
43,NJ,1216,Classic Bingo,$2.00 ,150,0,149,1/29/2016,1/29/2016,Deactivate
44,NJ,1218,Hot Dice,$1.00 ,300,0,299,1/29/2016,1/29/2016,Deactivate
45,NJ,1219,Electric 5s,$2.00 ,150,0,149,1/29/2016,1/29/2016,Deactivate
46,NJ,1220,Bingo Star Tripler,$3.00 ,100,0,99,1/29/2016,1/29/2016,Deactivate
47,NJ,1221,Money Match,$5.00 ,60,0,59,1/29/2016,1/29/2016,Deactivate
48,NJ,1222,5X Money,$1.00 ,300,0,299,1/29/2016,1/29/2016,Deactivate
49,NJ,1223,10X Money,$2.00 ,150,0,149,1/29/2016,1/29/2016,Deactivate
50,NJ,1224,20X Money,$5.00 ,60,0,59,1/29/2016,1/29/2016,Deactivate
51,NJ,1225,50x Money,$10.00 ,30,0,29,1/29/2016,1/29/2016,Deactivate
52,NJ,1226,Crossword,$3.00 ,100,0,99,1/29/2016,1/29/2016,Deactivate
53,NJ,1227,Big Money Spectacular,$2.00 ,150,0,149,1/29/2016,1/29/2016,Deactivate
54,NJ,1230,Gems 7s,$5.00 ,60,0,59,1/29/2016,1/29/2016,Deactivate
55,NJ,1232,$500 Frenzy,$5.00 ,60,0,59,1/29/2016,1/29/2016,Deactivate
56,NJ,1233,Loose Change,$1.00 ,300,0,299,1/29/2016,1/29/2016,Deactivate
57,NJ,1235,Triple Diamonds,$2.00 ,150,0,149,1/29/2016,1/29/2016,Deactivate
58,NJ,1236,Lucky Loot,$5.00 ,60,0,59,1/29/2016,1/29/2016,Deactivate
59,NJ,1237,250 000,$10.00 ,30,0,29,1/29/2016,1/29/2016,Deactivate
60,NJ,1238,Loteria,$3.00 ,100,0,99,1/29/2016,1/29/2016,Deactivate
61,NJ,1239,Big Money Spectacular,$2.00 ,150,0,149,1/29/2016,1/29/2016,Deactivate
62,NJ,1240,Super Crossword,$5.00 ,60,0,59,1/29/2016,1/29/2016,Deactivate
63,NJ,1241,World Series of Poker,$5.00 ,60,0,59,1/29/2016,1/29/2016,Deactivate
64,NJ,1242,10 000 Payday,$10.00 ,30,0,29,1/29/2016,1/29/2016,Deactivate
65,NJ,1243,Monopoly,$1.00 ,300,0,299,1/29/2016,1/29/2016,Deactivate
66,NJ,1244,Monopoly,$2.00 ,150,0,149,1/29/2016,1/29/2016,Deactivate
67,NJ,1245,Monopoly,$5.00 ,60,0,59,1/29/2016,1/29/2016,Deactivate
68,NJ,1246,Big Money Spectacular,$2.00 ,150,0,149,1/29/2016,1/29/2016,Deactivate
69,NJ,1247,Classic Bingo,$2.00 ,150,0,149,1/29/2016,1/29/2016,Deactivate
70,NJ,1248,Massive Money Bingo,$10.00 ,30,0,29,1/29/2016,1/29/2016,Deactivate
71,NJ,1249,The Walking Dead,$2.00 ,150,0,149,1/29/2016,1/29/2016,Deactivate
72,NJ,1250,Triple Winning 7s,$5.00 ,60,0,59,1/29/2016,1/29/2016,Deactivate
73,NJ,1251,20 000 Payday,$20.00 ,15,0,14,1/29/2016,1/29/2016,Deactivate
74,NJ,1252,Crossword,$3.00 ,100,0,99,1/29/2016,1/29/2016,Deactivate
75,NJ,1253,Birthday Bucks,$2.00 ,150,0,149,1/29/2016,1/29/2016,Deactivate
76,NJ,1254,Bingo x10,$5.00 ,60,0,59,1/29/2016,1/29/2016,Deactivate
77,NJ,1255,Holiday Cash,$1.00 ,300,0,299,1/29/2016,1/29/2016,Deactivate
78,NJ,1256,Holiday Lucky Times 10,$2.00 ,150,0,149,1/29/2016,1/29/2016,Deactivate
79,NJ,1257,Holiday Magic,$5.00 ,60,0,59,1/29/2016,1/29/2016,Deactivate
80,NJ,1258,Holiday Gold,$10.00 ,30,0,29,1/29/2016,1/29/2016,Deactivate
81,NJ,1259,Crossword,$3.00 ,100,0,99,1/29/2016,1/29/2016,Deactivate
82,NJ,1260,Classic Bingo,$2.00 ,150,0,149,1/29/2016,1/29/2016,Deactivate
83,NJ,1261,Candy Cane Crossword,$3.00 ,100,0,99,1/29/2016,1/29/2016,Deactivate
84,NJ,1262,Super Crossword,$5.00 ,60,0,59,1/29/2016,1/29/2016,Deactivate
85,NJ,1263,2015 CASH SPECTACULAR,$2.00 ,150,0,149,1/29/2016,1/29/2016,Deactivate
86,NJ,1264,WIN IT ALL,$5.00 ,60,0,59,1/29/2016,1/29/2016,Deactivate
87,NJ,1265,Lucky in Love,$2.00 ,150,0,149,1/29/2016,1/29/2016,Deactivate
88,NJ,1266,CASH BONUS BINGO,$3.00 ,100,0,99,1/29/2016,1/29/2016,Deactivate
89,NJ,1267,Super Cash Spectacular,$5.00 ,60,0,59,1/29/2016,1/29/2016,Deactivate
90,NJ,1268,Double Diamond Spectacular,$20.00 ,15,0,14,1/29/2016,1/29/2016,Deactivate
91,NJ,1269,CHILLY BILLS,$2.00 ,150,0,149,1/29/2016,1/29/2016,Deactivate
92,NJ,1270,Crossword,$3.00 ,100,0,99,1/29/2016,1/29/2016,Deactivate
93,NJ,1271,Classic Bingo,$2.00 ,150,0,149,1/29/2016,1/29/2016,Deactivate
94,NJ,1272,Big Money Spectacular,$2.00 ,150,0,149,1/29/2016,1/29/2016,Deactivate
95,NJ,1274,Big Cash Spectacular,$2.00 ,150,0,149,1/29/2016,1/29/2016,Deactivate
96,NJ,1275,50 Frenzy,$1.00 ,300,0,299,1/29/2016,1/29/2016,Deactivate
97,NJ,1276,100 Frenzy,$2.00 ,150,0,149,1/29/2016,1/29/2016,Deactivate
98,NJ,1277,500 Frenzy 2nd Edition,$5.00 ,60,0,59,1/29/2016,1/29/2016,Deactivate
99,NJ,1278,2 500 Frenzy,$10.00 ,30,0,29,1/29/2016,1/29/2016,Deactivate
100,NJ,1279,Super Crossword,$5.00 ,60,0,59,1/29/2016,1/29/2016,Deactivate
101,NJ,1282,Gold Bar Bingo,$5.00 ,60,0,59,1/29/2016,1/29/2016,Deactivate
102,NJ,1284,10 000 pay day,$10.00 ,30,0,29,1/29/2016,1/29/2016,Deactivate
103,NJ,1285,Escape to Margaritaville,$2.00 ,150,0,149,1/29/2016,1/29/2016,Deactivate
104,NJ,1286,Super Tic Tac Toe,$3.00 ,100,0,99,1/29/2016,1/29/2016,Deactivate
105,NJ,1287,Monopoly Millionaires Club,$5.00 ,60,0,59,1/29/2016,1/29/2016,Deactivate
106,NJ,1288,5 000 Jackpot,$1.00 ,300,0,299,1/29/2016,1/29/2016,Deactivate
107,NJ,1289,30 000 Jackpot,$2.00 ,150,0,149,1/29/2016,1/29/2016,Deactivate
108,NJ,1290,200 000 Jackpot,$5.00 ,60,0,59,1/29/2016,1/29/2016,Deactivate
109,NJ,1291,1 000 000 Jackpot,$10.00 ,30,0,29,1/29/2016,1/29/2016,Deactivate
110,NJ,1292,250 000 crossword,$10.00 ,30,0,29,1/29/2016,1/29/2016,Deactivate
111,NJ,1293,Double Your Luck,$1.00 ,300,0,299,1/29/2016,1/29/2016,Deactivate
112,NJ,1294,Bloomin Bucks,$2.00 ,150,0,149,1/29/2016,1/29/2016,Deactivate
113,NJ,1295,Jokers Wild,$5.00 ,60,0,59,1/29/2016,1/29/2016,Deactivate
114,NJ,1296,Cash Explosion,$2.00 ,150,0,149,1/29/2016,1/29/2016,Deactivate
115,NJ,1297,Win For Life,$3.00 ,100,0,99,1/29/2016,1/29/2016,Deactivate
116,NJ,1298,500 000 Fortune,$10.00 ,30,0,29,1/29/2016,1/29/2016,Deactivate
117,NJ,1299,Super Crossword,$5.00 ,60,0,59,1/29/2016,1/29/2016,Deactivate
118,NJ,1300,Big Cash Spectacular,$2.00 ,150,0,149,1/29/2016,1/29/2016,Deactivate
119,NJ,1301,Super Slots,$5.00 ,60,0,59,1/29/2016,1/29/2016,Deactivate
120,TX,50,12 000 Jackpot,$1.00 ,300,0,299,1/29/2016,1/29/2016,Deactivate
121,TX,847,Big Money Multiplier,$10.00 ,30,0,29,1/29/2016,1/29/2016,Deactivate
122,TX,859,5X,$1.00 ,300,0,299,1/29/2016,1/29/2016,Deactivate
123,TX,1028,Super Set For Life II,$20.00 ,25,1,25,1/29/2016,1/29/2016,Deactivate
124,TX,1114,$500M Blockbuster,$20.00 ,25,1,25,1/29/2016,1/29/2016,Deactivate
125,TX,1142,Maximum Millions,$20.00 ,25,1,25,1/29/2016,1/29/2016,Deactivate
126,TX,1143,Double It,$2.00 ,125,1,125,1/29/2016,1/29/2016,Deactivate
127,TX,1197,Set for Life,$10.00 ,50,1,50,1/29/2016,1/29/2016,Deactivate
128,TX,1198,Cash Bingo,$2.00 ,125,1,125,1/29/2016,1/29/2016,Deactivate
129,TX,1214,Ultimate Casino Jackpot,$50.00 ,20,1,20,1/29/2016,1/29/2016,Deactivate
130,TX,1217,Bonus Word Crossword,$3.00 ,125,1,125,1/29/2016,1/29/2016,Deactivate
131,TX,1231,Maybe Its Your Lucky Day,$1.00 ,150,1,150,1/29/2016,1/29/2016,Deactivate
132,TX,1232,Big Money,$10.00 ,50,1,50,1/29/2016,1/29/2016,Deactivate
133,TX,1233,Mother Lode,$1.00 ,150,1,150,1/29/2016,1/29/2016,Deactivate
134,TX,1234,Cool Cash Tripler,$5.00 ,75,1,75,1/29/2016,1/29/2016,Deactivate
135,TX,1235,Veterans Cash,$2.00 ,125,1,125,1/29/2016,1/29/2016,Deactivate
136,TX,1236,Casino Royale,$5.00 ,75,1,75,1/29/2016,1/29/2016,Deactivate
137,TX,1237,Tic Tac Cash,$1.00 ,150,1,150,1/29/2016,1/29/2016,Deactivate
138,TX,1238,Solid Gold,$10.00 ,50,1,50,1/29/2016,1/29/2016,Deactivate
139,TX,1239,Double Your Luck,$2.00 ,125,1,125,1/29/2016,1/29/2016,Deactivate
140,TX,1240,20 x The Cash,$5.00 ,75,1,75,1/29/2016,1/29/2016,Deactivate
141,TX,1241,Hot $50,$1.00 ,150,1,150,1/29/2016,1/29/2016,Deactivate
142,TX,1242,Casino Bingo,$2.00 ,125,1,125,1/29/2016,1/29/2016,Deactivate
143,TX,1243,24 Karat Cash,$2.00 ,125,1,125,1/29/2016,1/29/2016,Deactivate
144,TX,1244,Royal 7s,$7.00 ,75,1,75,1/29/2016,1/29/2016,Deactivate
145,TX,1245,Bank Loot,$1.00 ,150,1,150,1/29/2016,1/29/2016,Deactivate
146,TX,1246,Gold Fever,$5.00 ,75,1,75,1/29/2016,1/29/2016,Deactivate
147,TX,1247,Flying Aces,$2.00 ,125,1,125,1/29/2016,1/29/2016,Deactivate
148,TX,1248,Run the Table,$5.00 ,75,1,75,1/29/2016,1/29/2016,Deactivate
149,TX,1249,$ 1K Spin,$1.00 ,150,1,150,1/29/2016,1/29/2016,Deactivate
150,TX,1251,Triple Cash,$3.00 ,125,1,125,1/29/2016,1/29/2016,Deactivate
151,TX,1253,Spicy Hot 7s,$2.00 ,125,1,125,1/29/2016,1/29/2016,Deactivate
152,TX,1254,Houston Texans,$5.00 ,75,1,75,1/29/2016,1/29/2016,Deactivate
153,TX,1255,Jumbo Bucks lll,$2.00 ,125,1,125,1/29/2016,1/29/2016,Deactivate
154,TX,1256,Giant Jumbo Bucks lll,$5.00 ,75,1,75,1/29/2016,1/29/2016,Deactivate
155,TX,1257,Mega Jumbo Bucks lll,$10.00 ,50,1,50,1/29/2016,1/29/2016,Deactivate
156,TX,1258,Bonus Cashword,$3.00 ,125,1,125,1/29/2016,1/29/2016,Deactivate
157,TX,1259,Loteria Texas,$3.00 ,125,1,125,1/29/2016,1/29/2016,Deactivate
158,TX,1260,Wild 10s,$10.00 ,50,1,50,1/29/2016,1/29/2016,Deactivate
159,TX,1261,Dallas Cowboys,$5.00 ,75,1,75,1/29/2016,1/29/2016,Deactivate
160,TX,1262,Houston Texans,$5.00 ,75,1,75,1/29/2016,1/29/2016,Deactivate
161,TX,1263,Bonus Word Crossword,$3.00 ,125,1,125,1/29/2016,1/29/2016,Deactivate
162,TX,1264,Find the 9s,$1.00 ,150,1,150,1/29/2016,1/29/2016,Deactivate
163,TX,1265,Veterans Winnings,$2.00 ,125,1,125,1/29/2016,1/29/2016,Deactivate
164,TX,1266,Loteria Texas,$3.00 ,125,1,125,1/29/2016,1/29/2016,Deactivate
165,TX,1267,Bonus Word Crossword,$3.00 ,125,1,125,1/29/2016,1/29/2016,Deactivate
166,TX,1268,9s In A Line,$1.00 ,150,1,150,1/29/2016,1/29/2016,Deactivate
167,TX,1269,Break the Bank,$2.00 ,125,1,125,1/29/2016,1/29/2016,Deactivate
168,TX,1270,Weekly Grand,$2.00 ,125,1,125,1/29/2016,1/29/2016,Deactivate
169,TX,1271,"$250,000 Bingo",$10.00 ,50,1,50,1/29/2016,1/29/2016,Deactivate
170,TX,1272,Veterans Cash,$2.00 ,125,1,125,1/29/2016,1/29/2016,Deactivate
171,TX,1273,Match and Win,$3.00 ,125,1,125,1/29/2016,1/29/2016,Deactivate
172,TX,1274,Instant Powerball,$5.00 ,75,1,75,1/29/2016,1/29/2016,Deactivate
173,TX,1275,Big Money Bingo,$5.00 ,75,1,75,1/29/2016,1/29/2016,Deactivate
174,TX,1276,Texas Lottery Black,$10.00 ,50,1,50,1/29/2016,1/29/2016,Deactivate
175,TX,1277,Casino Action,$50.00 ,20,1,20,1/29/2016,1/29/2016,Deactivate
176,TX,1278,Quick Cash,$1.00 ,150,1,150,1/29/2016,1/29/2016,Deactivate
177,TX,1279,Hit the Jackpot,$7.00 ,75,1,75,1/29/2016,1/29/2016,Deactivate
178,TX,1280,Green,$1.00 ,150,1,150,1/29/2016,1/29/2016,Deactivate
179,TX,1281,Super 7s,$1.00 ,150,1,150,1/29/2016,1/29/2016,Deactivate
180,TX,1282,Ruby Red 5s,$5.00 ,75,1,75,1/29/2016,1/29/2016,Deactivate
181,TX,1283,Silver and Gold,$5.00 ,75,1,75,1/29/2016,1/29/2016,Deactivate
182,TX,1284,Winter Green,$7.00 ,75,1,75,1/29/2016,1/29/2016,Deactivate
183,TX,1285,Platinum Present,$20.00 ,25,1,25,1/29/2016,1/29/2016,Deactivate
184,TX,1286,Holiday Cheer,$1.00 ,150,1,150,1/29/2016,1/29/2016,Deactivate
185,TX,1287,Holiday Riches,$5.00 ,75,1,75,1/29/2016,1/29/2016,Deactivate
186,TX,1288,Gifts Galore,$2.00 ,125,1,125,1/29/2016,1/29/2016,Deactivate
187,TX,1289,Candy Cane Cash,$3.00 ,125,1,125,1/29/2016,1/29/2016,Deactivate
188,TX,1290,Winter Bucks,$10.00 ,50,1,50,1/29/2016,1/29/2016,Deactivate
189,TX,1291,Fabulous Fortune,$5.00 ,75,1,75,1/29/2016,1/29/2016,Deactivate
190,TX,1292,Seasons Gold,$5.00 ,75,1,75,1/29/2016,1/29/2016,Deactivate
191,TX,1293,Double Blackjack,$2.00 ,125,1,125,1/29/2016,1/29/2016,Deactivate
192,TX,1294,Triple Win,$1.00 ,150,1,150,1/29/2016,1/29/2016,Deactivate
193,TX,1295,Green Machine,$5.00 ,75,1,75,1/29/2016,1/29/2016,Deactivate
194,TX,1296,Monopoly,$3.00 ,125,1,125,1/29/2016,1/29/2016,Deactivate
195,TX,1297,Red Hot Cherries,$1.00 ,150,1,150,1/29/2016,1/29/2016,Deactivate
196,TX,1298,Neon 9s,$2.00 ,125,1,125,1/29/2016,1/29/2016,Deactivate
197,TX,1299,Pieces of 8,$1.00 ,150,1,150,1/29/2016,1/29/2016,Deactivate
198,TX,1300,20X The Money,$10.00 ,50,1,50,1/29/2016,1/29/2016,Deactivate
199,TX,1301,Red Hot Hearts,$2.00 ,125,1,125,1/29/2016,1/29/2016,Deactivate
200,TX,1302,Magnificent 7s,$7.00 ,75,1,75,1/29/2016,1/29/2016,Deactivate
201,TX,1303,$100K Jackpot,$5.00 ,75,1,75,1/29/2016,1/29/2016,Deactivate
202,TX,1304,Double Dollar,$1.00 ,150,1,150,1/29/2016,1/29/2016,Deactivate
203,TX,1305,Triple Lucky Diamonds,$3.00 ,125,1,125,1/29/2016,1/29/2016,Deactivate
204,TX,1306,Cactus Cash,$1.00 ,150,1,150,1/29/2016,1/29/2016,Deactivate
205,TX,1307,The Price is Right,$5.00 ,75,1,75,1/29/2016,1/29/2016,Deactivate
206,TX,1308,Hog Mania,$1.00 ,150,1,150,1/29/2016,1/29/2016,Deactivate
207,TX,1309,5 Star Cash,$5.00 ,75,1,75,1/29/2016,1/29/2016,Deactivate
208,TX,1310,Triple Your Money,$2.00 ,125,1,125,1/29/2016,1/29/2016,Deactivate
209,TX,1311,Number Safari,$1.00 ,150,1,150,1/29/2016,1/29/2016,Deactivate
210,TX,1312,"Hot $ 100,000",$5.00 ,75,1,75,1/29/2016,1/29/2016,Deactivate
211,TX,1313,Lucky 13,$2.00 ,125,1,125,1/29/2016,1/29/2016,Deactivate
212,TX,1314,Spin To Win,$2.00 ,125,1,125,1/29/2016,1/29/2016,Deactivate
213,TX,1315,Cash Extravaganza,$5.00 ,75,1,75,1/29/2016,1/29/2016,Deactivate
214,TX,1316,Loteria Texas,$3.00 ,125,1,125,1/29/2016,1/29/2016,Deactivate
215,TX,1317,Yellow Rose of Texas,$2.00 ,125,1,125,1/29/2016,1/29/2016,Deactivate
216,TX,1318,Instant Powerball,$5.00 ,75,1,75,1/29/2016,1/29/2016,Deactivate
217,TX,1319,Blackjack,$1.00 ,150,1,150,1/29/2016,1/29/2016,Deactivate
218,TX,1320,3 Times The Money,$3.00 ,125,1,125,1/29/2016,1/29/2016,Deactivate
219,TX,1321,Veterans Cash,$2.00 ,125,1,125,1/29/2016,1/29/2016,Deactivate
220,TX,1322,Funky 5s,$5.00 ,75,1,75,1/29/2016,1/29/2016,Deactivate
221,TX,1323,Triple Cash,$1.00 ,150,1,150,1/29/2016,1/29/2016,Deactivate
222,TX,1324,Texas Lottery Black-Series II,$10.00 ,50,1,50,1/29/2016,1/29/2016,Deactivate
223,TX,1325,5 Times Lucky,$5.00 ,75,1,75,1/29/2016,1/29/2016,Deactivate
224,TX,1326,Diamond Dash,$1.00 ,150,1,150,1/29/2016,1/29/2016,Deactivate
225,TX,1327,Black Cherry Doubler,$5.00 ,75,1,75,1/29/2016,1/29/2016,Deactivate
226,TX,1328,Fat Cat Tripler,$2.00 ,125,1,125,1/29/2016,1/29/2016,Deactivate
227,TX,1329,Scorching 7s,$7.00 ,75,1,75,1/29/2016,1/29/2016,Deactivate
228,TX,1330,Red White and Blue 7s,$1.00 ,150,1,150,1/29/2016,1/29/2016,Deactivate
229,TX,1331,20X The Money,$5.00 ,75,1,75,1/29/2016,1/29/2016,Deactivate
230,TX,1332,Money Tripler,$3.00 ,125,1,125,1/29/2016,1/29/2016,Deactivate
231,TX,1333,Break The Bank,$2.00 ,125,1,125,1/29/2016,1/29/2016,Deactivate
232,TX,1334,$50K Players Club,$5.00 ,75,1,75,1/29/2016,1/29/2016,Deactivate
233,TX,1335,Super 7s,$1.00 ,150,1,150,1/29/2016,1/29/2016,Deactivate
234,TX,1336,Veterans Cash,$2.00 ,125,1,125,1/29/2016,1/29/2016,Deactivate
235,TX,1337,"$100,000 Fortune",$5.00 ,75,1,75,1/29/2016,1/29/2016,Deactivate
236,TX,1338,Super 8s,$1.00 ,150,1,150,1/29/2016,1/29/2016,Deactivate
237,TX,1339,Green and Gold,$5.00 ,75,1,75,1/29/2016,1/29/2016,Deactivate
238,TX,1340,"$5,000 Winnings",$1.00 ,150,1,150,1/29/2016,1/29/2016,Deactivate
239,TX,1341,Loteria Texas,$3.00 ,125,1,125,1/29/2016,1/29/2016,Deactivate
240,TX,1342,Bonus Break The Bank,$5.00 ,75,1,75,1/29/2016,1/29/2016,Deactivate
241,TX,1343,Monthly Bonus,$5.00 ,75,1,75,1/29/2016,1/29/2016,Deactivate
242,TX,1344,Find the 9s,$1.00 ,150,1,150,1/29/2016,1/29/2016,Deactivate
243,TX,1345,Loteria Texas,$3.00 ,125,1,125,1/29/2016,1/29/2016,Deactivate
244,TX,1346,$250K Bingo,$10.00 ,50,1,50,1/29/2016,1/29/2016,Deactivate
245,TX,1347,Cash To Go,$1.00 ,150,1,150,1/29/2016,1/29/2016,Deactivate
246,TX,1348,7/11/2021,$1.00 ,150,1,150,1/29/2016,1/29/2016,Deactivate
247,TX,1349,Set For Life,$10.00 ,50,1,50,1/29/2016,1/29/2016,Deactivate
248,TX,1350,Bingo Multi-Prize,$5.00 ,75,1,75,1/29/2016,1/29/2016,Deactivate
249,TX,1351,Bonus Cashword,$3.00 ,125,1,125,1/29/2016,1/29/2016,Deactivate
250,TX,1352,"$250,000 Bingo",$10.00 ,50,1,50,1/29/2016,1/29/2016,Deactivate
251,TX,1353,9s In A Line,$1.00 ,150,1,150,1/29/2016,1/29/2016,Deactivate
252,TX,1354,$500 Million Frenzy,$20.00 ,25,1,25,1/29/2016,1/29/2016,Deactivate
253,TX,1355,Weekly Grand,$2.00 ,125,1,125,1/29/2016,1/29/2016,Deactivate
254,TX,1356,Texas Lottery Black-Series III-Ltd Edition,$10.00 ,50,1,50,1/29/2016,1/29/2016,Deactivate
255,TX,1358,Mega Money,$5.00 ,75,1,75,1/29/2016,1/29/2016,Deactivate
256,TX,1359,"$250,000 Bingo",$10.00 ,50,1,50,1/29/2016,1/29/2016,Deactivate
257,TX,1360,Triple Tripler,$3.00 ,125,1,125,1/29/2016,1/29/2016,Deactivate
258,TX,1361,Triple 7s,$5.00 ,75,1,75,1/29/2016,1/29/2016,Deactivate
259,TX,1362,Sweet Cash,$1.00 ,150,1,150,1/29/2016,1/29/2016,Deactivate
260,TX,1363,Dallas Cowboys,$5.00 ,75,1,75,1/29/2016,1/29/2016,Deactivate
261,TX,1364,Houston Texans,$5.00 ,75,1,75,1/29/2016,1/29/2016,Deactivate
262,TX,1365,Haunted Halloween,$2.00 ,125,1,125,1/29/2016,1/29/2016,Deactivate
263,TX,1366,Quick 6s,$1.00 ,150,1,150,1/29/2016,1/29/2016,Deactivate
264,TX,1367,Black Onyx 7s,$5.00 ,75,1,75,1/29/2016,1/29/2016,Deactivate
265,TX,1368,Merry Millionaire,$20.00 ,25,1,25,1/29/2016,1/29/2016,Deactivate
266,TX,1369,Happy Holidays,$1.00 ,150,1,150,1/29/2016,1/29/2016,Deactivate
267,TX,1370,Silver Bells,$5.00 ,75,1,75,1/29/2016,1/29/2016,Deactivate
268,TX,1371,Holiday Gold,$2.00 ,125,1,125,1/29/2016,1/29/2016,Deactivate
269,TX,1372,Cash Blast,$5.00 ,75,1,75,1/29/2016,1/29/2016,Deactivate
270,TX,1373,Seasons Greetings,$10.00 ,50,1,50,1/29/2016,1/29/2016,Deactivate
271,TX,1374,Armadillo Cash,$1.00 ,150,1,150,1/29/2016,1/29/2016,Deactivate
272,TX,1375,Merry Crossword,$3.00 ,125,1,125,1/29/2016,1/29/2016,Deactivate
273,TX,1376,Elvis,$2.00 ,125,1,125,1/29/2016,1/29/2016,Deactivate
274,TX,1377,"$100,000 Extreme Cash",$5.00 ,75,1,75,1/29/2016,1/29/2016,Deactivate
275,TX,1378,Instant Cash Five,$1.00 ,150,1,150,1/29/2016,1/29/2016,Deactivate
276,TX,1379,Gold CLass,$1.00 ,150,1,150,1/29/2016,1/29/2016,Deactivate
277,TX,1380,Groovy Cash,$5.00 ,75,1,75,1/29/2016,1/29/2016,Deactivate
278,TX,1381,Money Multiplier,$5.00 ,75,1,75,1/29/2016,1/29/2016,Deactivate
279,TX,1382,Happy Hearts Cash,$2.00 ,125,1,125,1/29/2016,1/29/2016,Deactivate
280,TX,1383,Loteria Texas,$3.00 ,125,1,125,1/29/2016,1/29/2016,Deactivate
281,TX,1384,Mardi Gras,$1.00 ,150,1,150,1/29/2016,1/29/2016,Deactivate
282,TX,1385,Chocolate,$5.00 ,75,1,75,1/29/2016,1/29/2016,Deactivate
283,TX,1386,Hit $100,$2.00 ,125,1,125,1/29/2016,1/29/2016,Deactivate
284,TX,1387,$500 M EXtreme Cash Blast,$20.00 ,25,1,25,1/29/2016,1/29/2016,Deactivate
285,TX,1388,3 Times Lucky,$3.00 ,125,1,125,1/29/2016,1/29/2016,Deactivate
286,TX,1389,Find the 9s,$1.00 ,150,1,150,1/29/2016,1/29/2016,Deactivate
287,TX,1390,Triple It,$1.00 ,150,1,150,1/29/2016,1/29/2016,Deactivate
288,TX,1391,Platinum Card,$2.00 ,125,1,125,1/29/2016,1/29/2016,Deactivate
289,TX,1392,Spicy Hot 5s,$5.00 ,75,1,75,1/29/2016,1/29/2016,Deactivate
290,TX,1393,Spades,$1.00 ,150,1,150,1/29/2016,1/29/2016,Deactivate
291,TX,1394,"$7,500,000 Fortune",$50.00 ,20,1,20,1/29/2016,1/29/2016,Deactivate
292,TX,1395,Spin 3,$2.00 ,125,1,125,1/29/2016,1/29/2016,Deactivate
293,TX,1396,Emerald 7s,$5.00 ,75,1,75,1/29/2016,1/29/2016,Deactivate
294,TX,1397,Lucky 7s,$1.00 ,150,1,150,1/29/2016,1/29/2016,Deactivate
295,TX,1398,Cash Farmer,$5.00 ,75,1,75,1/29/2016,1/29/2016,Deactivate
296,TX,1399,Easy Money,$2.00 ,125,1,125,1/29/2016,1/29/2016,Deactivate
297,TX,1400,Texas 7s,$5.00 ,75,1,75,1/29/2016,1/29/2016,Deactivate
298,TX,1401,Tx Lottery Black Series iv Limited Edition,$10.00 ,50,1,50,1/29/2016,1/29/2016,Deactivate
299,TX,1402,Amazing 8s,$1.00 ,150,1,150,1/29/2016,1/29/2016,Deactivate
300,TX,1403,Black Pearls,$5.00 ,75,1,75,1/29/2016,1/29/2016,Deactivate
301,TX,1405,Texas Tea,$1.00 ,150,1,150,1/29/2016,1/29/2016,Deactivate
302,TX,1406,Instant Powerball,$5.00 ,75,1,75,1/29/2016,1/29/2016,Deactivate
303,TX,1407,Hot Numbers,$2.00 ,125,1,125,1/29/2016,1/29/2016,Deactivate
304,TX,1408,20th Anniversary,$5.00 ,75,1,75,1/29/2016,1/29/2016,Deactivate
305,TX,1409,Fast Cash,$1.00 ,150,1,150,1/29/2016,1/29/2016,Deactivate
306,TX,1410,Triple Lucky Numbers,$2.00 ,125,1,125,1/29/2016,1/29/2016,Deactivate
307,TX,1411,5X Fortune,$5.00 ,75,1,75,1/29/2016,1/29/2016,Deactivate
308,TX,1412,Red Hot n Blue 7s,$1.00 ,150,1,150,1/29/2016,1/29/2016,Deactivate
309,TX,1413,50 Grand,$5.00 ,75,1,75,1/29/2016,1/29/2016,Deactivate
310,TX,1414,Diamond Dollars,$2.00 ,125,1,125,1/29/2016,1/29/2016,Deactivate
311,TX,1415,7X The Money,$5.00 ,75,1,75,1/29/2016,1/29/2016,Deactivate
312,TX,1416,Double Wild Cherries,$1.00 ,150,1,150,1/29/2016,1/29/2016,Deactivate
313,TX,1417,The Three Stooges,$2.00 ,125,1,125,1/29/2016,1/29/2016,Deactivate
314,TX,1418,Fire n Ice 5s,$5.00 ,75,1,75,1/29/2016,1/29/2016,Deactivate
315,TX,1419,Cash Bonanza,$1.00 ,150,1,150,1/29/2016,1/29/2016,Deactivate
316,TX,1420,3X The Cash,$3.00 ,125,1,125,1/29/2016,1/29/2016,Deactivate
317,TX,1421,Kings Ransom,$5.00 ,75,1,75,1/29/2016,1/29/2016,Deactivate
318,TX,1422,Rockin 9s,$2.00 ,125,1,125,1/29/2016,1/29/2016,Deactivate
319,TX,1423,Ea$y 10,$1.00 ,150,1,150,1/29/2016,1/29/2016,Deactivate
320,TX,1424,Dallas Cowboys,$5.00 ,75,1,75,1/29/2016,1/29/2016,Deactivate
321,TX,1425,Houston Texans,$5.00 ,75,1,75,1/29/2016,1/29/2016,Deactivate
322,TX,1426,Royal Riches,$2.00 ,125,1,125,1/29/2016,1/29/2016,Deactivate
323,TX,1427,Spicy Hot Cash,$1.00 ,150,1,150,1/29/2016,1/29/2016,Deactivate
324,TX,1428,Lucky Gems Bingo,$2.00 ,125,1,125,1/29/2016,1/29/2016,Deactivate
325,TX,1429,Bonus Break the Bank,$5.00 ,75,1,75,1/29/2016,1/29/2016,Deactivate
326,TX,1430,Magic 8 Ball,$2.00 ,125,1,125,1/29/2016,1/29/2016,Deactivate
327,TX,1431,100000 Riches,$5.00 ,75,1,75,1/29/2016,1/29/2016,Deactivate
328,TX,1432,"$100,000 Silver n Gold",$5.00 ,75,1,75,1/29/2016,1/29/2016,Deactivate
329,TX,1433,200 Million Spectacular,$10.00 ,50,1,50,1/29/2016,1/29/2016,Deactivate
330,TX,1434,Break the Bank,$2.00 ,125,1,125,1/29/2016,1/29/2016,Deactivate
331,TX,1435,Bonus Ball Bingo,$3.00 ,125,1,125,1/29/2016,1/29/2016,Deactivate
332,TX,1436,World Series of Poker,$10.00 ,50,1,50,1/29/2016,1/29/2016,Deactivate
333,TX,1437,Monthly Bonus,$5.00 ,75,1,75,1/29/2016,1/29/2016,Deactivate
334,TX,1438,Bonus Cashword,$3.00 ,125,1,125,1/29/2016,1/29/2016,Deactivate
335,TX,1439,Bingo Multi-Prize,$5.00 ,75,1,75,1/29/2016,1/29/2016,Deactivate
336,TX,1440,Weekly Grand,$2.00 ,125,1,125,1/29/2016,1/29/2016,Deactivate
337,TX,1441,The Golden Ticket,$10.00 ,50,1,50,1/29/2016,1/29/2016,Deactivate
338,TX,1442,Loteria,$3.00 ,125,1,125,1/29/2016,1/29/2016,Deactivate
339,TX,1443,"250,000 Bingo",$10.00 ,50,1,50,1/29/2016,1/29/2016,Deactivate
340,TX,1444,Veterans Cash,$2.00 ,125,1,125,1/29/2016,1/29/2016,Deactivate
341,TX,1445,The Avengers,$1.00 ,150,1,150,1/29/2016,1/29/2016,Deactivate
342,TX,1446,9s In A Line,$1.00 ,150,1,150,1/29/2016,1/29/2016,Deactivate
343,TX,1447,Money Craze,$1.00 ,150,1,150,1/29/2016,1/29/2016,Deactivate
344,TX,1448,VIP Club,$20.00 ,25,1,25,1/29/2016,1/29/2016,Deactivate
345,TX,1449,Chili Pepper Tripler,$3.00 ,125,1,125,1/29/2016,1/29/2016,Deactivate
346,TX,1450,Lucky Gems Bingo,$2.00 ,125,1,125,1/29/2016,1/29/2016,Deactivate
347,TX,1451,Bonus word Crossword,$3.00 ,125,1,125,1/29/2016,1/29/2016,Deactivate
348,TX,1452,Loteria Texas,$3.00 ,125,1,125,1/29/2016,1/29/2016,Deactivate
349,TX,1453,Monthly Bonus,$5.00 ,75,1,75,1/29/2016,1/29/2016,Deactivate
350,TX,1454,Bonus Break the Bank,$5.00 ,75,1,75,1/29/2016,1/29/2016,Deactivate
351,TX,1455,High Roller,$5.00 ,75,1,75,1/29/2016,1/29/2016,Deactivate
352,TX,1456,Diamonds & Gold,$5.00 ,75,1,75,1/29/2016,1/29/2016,Deactivate
353,TX,1457,Kiss,$2.00 ,125,1,125,1/29/2016,1/29/2016,Deactivate
354,TX,1458,Lucky 3s,$3.00 ,125,1,125,1/29/2016,1/29/2016,Deactivate
355,TX,1459,10X The Money,$5.00 ,75,1,75,1/29/2016,1/29/2016,Deactivate
356,TX,1460,Roadrunner Tripler,$1.00 ,150,1,150,1/29/2016,1/29/2016,Deactivate
357,TX,1461,Diamond Mine,$5.00 ,75,1,75,1/29/2016,1/29/2016,Deactivate
358,TX,1462,Haunted Tripler,$2.00 ,125,1,125,1/29/2016,1/29/2016,Deactivate
359,TX,1464,Ruby 7s,$5.00 ,75,1,75,1/29/2016,1/29/2016,Deactivate
360,TX,1465,Cash On The Spot,$1.00 ,150,1,150,1/29/2016,1/29/2016,Deactivate
361,TX,1466,Merry Millions,$20.00 ,25,1,25,1/29/2016,1/29/2016,Deactivate
362,TX,1467,Holiday Greetings,$1.00 ,150,1,150,1/29/2016,1/29/2016,Deactivate
363,TX,1468,Nutcracker Cash,$5.00 ,75,1,75,1/29/2016,1/29/2016,Deactivate
364,TX,1469,Holiday Break the Bank,$2.00 ,125,1,125,1/29/2016,1/29/2016,Deactivate
365,TX,1470,Holiday Doubler,$10.00 ,50,1,50,1/29/2016,1/29/2016,Deactivate
366,TX,1471,Great 8s,$5.00 ,75,1,75,1/29/2016,1/29/2016,Deactivate
367,TX,1472,Double Action,$10.00 ,50,1,50,1/29/2016,1/29/2016,Deactivate
368,TX,1473,Platinum 10X,$5.00 ,75,1,75,1/29/2016,1/29/2016,Deactivate
369,TX,1474,Veterans Cash,$2.00 ,125,1,125,1/29/2016,1/29/2016,Deactivate
370,TX,1475,Wild Doubler,$1.00 ,150,1,150,1/29/2016,1/29/2016,Deactivate
371,TX,1476,Jingle Bell Crossword,$3.00 ,125,1,125,1/29/2016,1/29/2016,Deactivate
372,TX,1477,Dazzling 7s,$2.00 ,125,1,125,1/29/2016,1/29/2016,Deactivate
373,TX,1478,Happy Holidays,$5.00 ,75,1,75,1/29/2016,1/29/2016,Deactivate
374,TX,1479,Match 3 Tripler,$1.00 ,150,1,150,1/29/2016,1/29/2016,Deactivate
375,TX,1481,Wild Cherry,$1.00 ,150,1,150,1/29/2016,1/29/2016,Deactivate
376,TX,1482,Neon 9s,$2.00 ,125,1,125,1/29/2016,1/29/2016,Deactivate
377,TX,1483,Golden Spades,$5.00 ,75,1,75,1/29/2016,1/29/2016,Deactivate
378,TX,1484,"$100,000 winnings",$5.00 ,75,1,75,1/29/2016,1/29/2016,Deactivate
379,TX,1485,"$100,000 Cash",$5.00 ,75,1,75,1/29/2016,1/29/2016,Deactivate
380,TX,1486,Cash Excitement,$20.00 ,25,1,25,1/29/2016,1/29/2016,Deactivate
381,TX,1487,Tons of Fun,$1.00 ,150,1,150,1/29/2016,1/29/2016,Deactivate
382,TX,1488,Instant Riches,$5.00 ,75,1,75,1/29/2016,1/29/2016,Deactivate
383,TX,1489,Blackjack Tripler,$2.00 ,125,1,125,1/29/2016,1/29/2016,Deactivate
384,TX,1490,Jumbo Cash Doubler,$10.00 ,50,1,50,1/29/2016,1/29/2016,Deactivate
385,TX,1491,Super 7s,$1.00 ,150,1,150,1/29/2016,1/29/2016,Deactivate
386,TX,1492,Millonaires Club,$50.00 ,20,1,20,1/29/2016,1/29/2016,Deactivate
387,TX,1493,Gimme 5,$5.00 ,75,1,75,1/29/2016,1/29/2016,Deactivate
388,TX,1494,Wild Card,$2.00 ,125,1,125,1/29/2016,1/29/2016,Deactivate
389,TX,1495,Fun 5s,$5.00 ,75,1,75,1/29/2016,1/29/2016,Deactivate
390,TX,1496,3 Times Lucky,$1.00 ,150,1,150,1/29/2016,1/29/2016,Deactivate
391,TX,1497,Great Golden 8s,$2.00 ,125,1,125,1/29/2016,1/29/2016,Deactivate
392,TX,1498,Maximum Jackpot,$5.00 ,75,1,75,1/29/2016,1/29/2016,Deactivate
393,TX,1499,Fabulous 5s,$1.00 ,150,1,150,1/29/2016,1/29/2016,Deactivate
394,TX,1500,Sizzlin 7s,$5.00 ,75,1,75,1/29/2016,1/29/2016,Deactivate
395,TX,1501,Money Multiplier,$2.00 ,125,1,125,1/29/2016,1/29/2016,Deactivate
396,TX,1502,Cash Cow,$1.00 ,150,1,150,1/29/2016,1/29/2016,Deactivate
397,TX,1503,"$50,000 Fast Cash",$5.00 ,75,1,75,1/29/2016,1/29/2016,Deactivate
398,TX,1504,Just Match,$2.00 ,125,1,125,1/29/2016,1/29/2016,Deactivate
399,TX,1505,Mucho Cash Fiesta,$5.00 ,75,1,75,1/29/2016,1/29/2016,Deactivate
400,TX,1506,Star Trek,$3.00 ,125,1,125,1/29/2016,1/29/2016,Deactivate
401,TX,1507,Twisted Bingo,$3.00 ,125,1,125,1/29/2016,1/29/2016,Deactivate
402,TX,1508,Money Mania,$5.00 ,75,1,75,1/29/2016,1/29/2016,Deactivate
403,TX,1509,Lucky Numbers,$2.00 ,125,1,125,1/29/2016,1/29/2016,Deactivate
404,TX,1510,Cash-O-Rama,$5.00 ,75,1,75,1/29/2016,1/29/2016,Deactivate
405,TX,1511,20x Ca$h,$20.00 ,25,1,25,1/29/2016,1/29/2016,Deactivate
406,TX,1512,Line Em Up,$1.00 ,150,1,150,1/29/2016,1/29/2016,Deactivate
407,TX,1513,Money Match,$2.00 ,125,1,125,1/29/2016,1/29/2016,Deactivate
408,TX,1514,Red Hot and Wild 7s,$5.00 ,75,1,75,1/29/2016,1/29/2016,Deactivate
409,TX,1515,Fantastic 5s,$1.00 ,150,1,150,1/29/2016,1/29/2016,Deactivate
410,TX,1516,Living Lucky,$5.00 ,75,1,75,1/29/2016,1/29/2016,Deactivate
411,TX,1517,3X Multiplier,$3.00 ,125,1,125,1/29/2016,1/29/2016,Deactivate
412,TX,1518,Cash Bam Boom,$2.00 ,125,1,125,1/29/2016,1/29/2016,Deactivate
413,TX,1519,Stacks of Cash,$5.00 ,75,1,75,1/29/2016,1/29/2016,Deactivate
414,TX,1520,"$1,000,000 Jackpot",$20.00 ,25,1,25,1/29/2016,1/29/2016,Deactivate
415,TX,1521,Lucky 7,$1.00 ,150,1,150,1/29/2016,1/29/2016,Deactivate
416,TX,1522,Sizzlin Cash,$2.00 ,125,1,125,1/29/2016,1/29/2016,Deactivate
417,TX,1523,Jokers Wild,$5.00 ,75,1,75,1/29/2016,1/29/2016,Deactivate
418,TX,1524,Loteria,$3.00 ,75,1,75,1/29/2016,1/29/2016,Deactivate
419,TX,1525,Platinum Card,$5.00 ,75,1,75,1/29/2016,1/29/2016,Deactivate
420,TX,1526,Wild Winnings,$2.00 ,125,1,125,1/29/2016,1/29/2016,Deactivate
421,TX,1527,$100 000 Cashword -O- rama,$5.00 ,75,1,75,1/29/2016,1/29/2016,Deactivate
422,TX,1528,Dallas Cowboys,$5.00 ,75,1,75,1/29/2016,1/29/2016,Deactivate
423,TX,1529,Houston Texans,$5.00 ,75,1,75,1/29/2016,1/29/2016,Deactivate
424,TX,1530,Black Cherry Tripler,$3.00 ,125,1,125,1/29/2016,1/29/2016,Deactivate
425,TX,1531,20X Ca$h,$20.00 ,25,1,25,1/29/2016,1/29/2016,Deactivate
426,TX,1532,Lady Bucks,$1.00 ,150,1,150,1/29/2016,1/29/2016,Deactivate
427,TX,1533,Cash 2 Go,$1.00 ,150,1,150,1/29/2016,1/29/2016,Deactivate
428,TX,1534,Big winning Numbers,$10.00 ,50,1,50,1/29/2016,1/29/2016,Deactivate
429,TX,1535,5X The Money,$5.00 ,75,1,75,1/29/2016,1/29/2016,Deactivate
430,TX,1536,10X Mega Money,$10.00 ,50,1,50,1/29/2016,1/29/2016,Deactivate
431,TX,1537,Bonus Cashword,$3.00 ,125,1,125,1/29/2016,1/29/2016,Deactivate
432,TX,1538,Loteria Texas,$3.00 ,125,1,125,1/29/2016,1/29/2016,Deactivate
433,TX,1539,Bonus Ball Bingo,$3.00 ,125,1,125,1/29/2016,1/29/2016,Deactivate
434,TX,1540,Loteria Texas,$3.00 ,125,1,125,1/29/2016,1/29/2016,Deactivate
435,TX,1541,Find the 9s,$1.00 ,150,1,150,1/29/2016,1/29/2016,Deactivate
436,TX,1542,Break the Bank,$2.00 ,125,1,125,1/29/2016,1/29/2016,Deactivate
437,TX,1543,Weekly Grand,$2.00 ,125,1,125,1/29/2016,1/29/2016,Deactivate
438,TX,1544,Veterans Cash,$2.00 ,125,1,125,1/29/2016,1/29/2016,Deactivate
439,TX,1545,$75000 Cashworld-O-Rama,$5.00 ,75,1,75,1/29/2016,1/29/2016,Deactivate
440,TX,1546,Bingo Multi-Prize,$5.00 ,75,1,75,1/29/2016,1/29/2016,Deactivate
441,TX,1547,"$250,000 Bingo",$10.00 ,50,1,50,1/29/2016,1/29/2016,Deactivate
442,TX,1548,5X Raceway Riches,$5.00 ,75,1,75,1/29/2016,1/29/2016,Deactivate
443,TX,1552,Platinum Payout,$10.00 ,50,1,50,1/29/2016,1/29/2016,Deactivate
444,TX,1553,Cash Extravaganza,$5.00 ,75,1,75,1/29/2016,1/29/2016,Deactivate
445,TX,1554,Weekly Half Grand,$1.00 ,150,1,150,1/29/2016,1/29/2016,Deactivate
446,TX,1555,Weekly Grand,$2.00 ,125,1,125,1/29/2016,1/29/2016,Deactivate
447,TX,1556,Bonus Weekly Grand,$5.00 ,75,1,75,1/29/2016,1/29/2016,Deactivate
448,TX,1557,Super Weekly Grand,$10.00 ,50,1,50,1/29/2016,1/29/2016,Deactivate
449,TX,1558,Scaredy Cash,$2.00 ,125,1,125,1/29/2016,1/29/2016,Deactivate
450,TX,1559,All Or Nothing,$5.00 ,75,1,75,1/29/2016,1/29/2016,Deactivate
451,TX,1560,Holiday Cheer,$1.00 ,150,1,150,1/29/2016,1/29/2016,Deactivate
452,TX,1561,Sapphire 7s,$5.00 ,75,1,75,1/29/2016,1/29/2016,Deactivate
453,TX,1562,Holiday Millions,$20.00 ,25,1,25,1/29/2016,1/29/2016,Deactivate
454,TX,1563,Seasons greetings,$2.00 ,125,1,125,1/29/2016,1/29/2016,Deactivate
455,TX,1564,Trim the tree,$5.00 ,75,1,75,1/29/2016,1/29/2016,Deactivate
456,TX,1565,Veterans Cash,$2.00 ,125,1,125,1/29/2016,1/29/2016,Deactivate
457,TX,1566,Whats your number,$1.00 ,150,1,150,1/29/2016,1/29/2016,Deactivate
458,TX,1567,Ultimate Crossword,$10.00 ,50,1,50,1/29/2016,1/29/2016,Deactivate
459,TX,1568,Cash Machine,$5.00 ,75,1,75,1/29/2016,1/29/2016,Deactivate
460,TX,1569,I Love Cash,$2.00 ,125,1,125,1/29/2016,1/29/2016,Deactivate
461,TX,1570,Merry Money,$5.00 ,75,1,75,1/29/2016,1/29/2016,Deactivate
462,TX,1571,Gifts Galore,$10.00 ,50,1,50,1/29/2016,1/29/2016,Deactivate
463,TX,1572,Crazy cash,$1.00 ,150,1,150,1/29/2016,1/29/2016,Deactivate
464,TX,1573,Red Diamond 7,$5.00 ,75,1,75,1/29/2016,1/29/2016,Deactivate
465,TX,1574,Break The Bank,$2.00 ,125,1,125,1/29/2016,1/29/2016,Deactivate
466,TX,1575,Cash Club,$5.00 ,75,1,75,1/29/2016,1/29/2016,Deactivate
467,TX,1576,5x The Cash,$1.00 ,150,1,150,,,
468,TX,1577,21,$5.00 ,75,1,75,,,
469,TX,1578,10x The Cash,$2.00 ,125,1,125,,,
470,TX,1579,Hearts on Fire,$5.00 ,75,1,75,,,
471,TX,1580,50X The Cash,$10.00 ,50,1,50,,,
472,TX,1581,Two can Doubler,$1.00 ,150,1,150,,,
473,TX,1582,20x The Cash,$5.00 ,75,1,75,,,
474,TX,1583,100x The Cash,$20.00 ,25,1,25,,,
475,TX,1584,VIP Cash Club,$2.00 ,125,1,125,,,
476,TX,1585,Cash Multiplier,$5.00 ,75,1,75,,,
477,TX,1586,Lucky Symbols,$1.00 ,150,1,150,,,
478,TX,1587,Chili Pepper Tripler,$2.00 ,125,1,125,,,
479,TX,1588,7,$5.00 ,75,1,75,,,
480,TX,1589,Double Blackjack,$1.00 ,150,1,150,,,
481,TX,1591,White Ice 8s,$2.00 ,125,1,125,,,
482,TX,1592,Fun 5s,$5.00 ,75,1,75,,,
483,TX,1593,Diamond Dollars,$50.00 ,20,1,20,,,
484,TX,1594,Match 3 Doubler,$1.00 ,150,1,150,,,
485,TX,1596,TRIPLE WINNING 7,$2.00 ,125,1,125,,,
486,TX,1599,Golden key,$5.00 ,75,1,75,,,
487,TX,1600,Veterans Cash,$2.00 ,125,1,125,,,
488,TX,1602,One Million Cash,$20.00 ,25,1,25,,,
489,TX,1603,3 000 Spot,$1.00 ,150,1,150,,,
490,TX,1604,10x super fast cash,$5.00 ,75,1,75,,,
491,TX,1605,Cherry Tripler,$2.00 ,125,1,125,,,
492,TX,1607,Texas Gold,$10.00 ,50,1,50,,,
493,TX,1608,Tic Tac Toad,$1.00 ,150,1,150,,,
494,TX,1609,Bingo Mania,$3.00 ,125,1,125,,,
495,TX,1611,Money spectacular,$5.00 ,75,1,75,,,
496,TX,1612,Break the Bank,$2.00 ,125,1,125,,,
497,TX,1613,Bonus Cashword,$3.00 ,125,1,125,,,
498,TX,1614,On The Money,$2.00 ,125,1,125,,,
499,TX,1615,Cowboys,$5.00 ,75,1,75,,,
500,TX,1616,Houston Texans,$5.00 ,75,1,75,,,
501,TX,1617,Money Money Millionaire,$20.00 ,25,1,25,,,
502,TX,1618,Triple Dynamite,$2.00 ,125,1,125,,,
503,TX,1619,Red Ball Tripler,$5.00 ,75,1,75,,,
504,TX,1620,Big Money,$10.00 ,50,1,50,,,
505,TX,1621,Instant Millions,$20.00 ,25,1,25,,,
506,TX,1623,Solid Gold,$5.00 ,75,1,75,,,
507,TX,1624,Scoop The Cash,$1.00 ,150,1,150,,,
508,TX,1627,Weekly Half Grand,$1.00 ,150,1,150,,,
509,TX,1628,Weekly Grand,$2.00 ,125,1,125,,,
510,TX,1629,Bonus Weekly Grand,$5.00 ,75,1,75,,,
511,TX,1630,Super Weekly Grand,$10.00 ,50,1,50,,,
512,TX,1632,Bonus Break The Bank,$5.00 ,75,1,75,,,
513,TX,1633,Twisted Bingo,$3.00 ,125,1,125,,,
514,TX,1634,Bonus cash,$3.00 ,125,1,125,,,
515,TX,1635,Loteria,$3.00 ,75,1,75,,,
516,TX,1636,Texas Dream Home,$5.00 ,75,1,75,,,
517,TX,1637,Holiday Game Book,$20.00 ,25,1,25,,,
518,TX,1638,Holiday Magic,$10.00 ,50,1,50,,,
519,TX,1639,5x The Cash,$1.00 ,150,1,150,,,
520,TX,1640,10x The Cash,$2.00 ,125,1,125,,,
521,TX,1641,20x The Cash,$5.00 ,75,1,75,,,
522,TX,1644,200 000 000 Cash Blowout,$10.00 ,50,1,50,,,
523,TX,1645,Caesars,$5.00 ,75,1,75,,,
524,TX,1646,Hot N Spicy Tripler,$2.00 ,125,1,125,,,
525,TX,1647,Lucky 13,$2.00 ,125,1,125,,,
526,TX,1648,Loteria,$3.00 ,75,1,75,,,
527,TX,1649,100 000 Cashword O Rama,$5.00 ,75,1,75,,,
528,TX,1650,100 000 Mega Bingo,$5.00 ,75,1,75,,,
529,TX,1651,Ultimate Crossword,$10.00 ,50,1,50,,,
530,TX,1652,Candy Cane Cash,$2.00 ,125,1,125,,,
531,TX,1653,100 000 Merry Money,$5.00 ,75,1,75,,,
532,TX,1655,Happy Holidays,$1.00 ,150,1,150,,,
533,TX,1656,Holiday Gold,$5.00 ,75,1,75,,,
534,TX,1657,Red Chili Tripler,$2.00 ,125,1,125,,,
535,TX,1658,100 000 Extreme Green,$5.00 ,75,1,75,,,
536,TX,1659,Extreme 8s,$5.00 ,75,1,75,,,
537,TX,1660,Lucky Loot,$2.00 ,125,1,125,,,
538,TX,1661,5X The Cash,$1.00 ,150,1,150,,,
539,TX,1662,Chocolate,$5.00 ,75,1,75,,,
540,TX,1663,50X The Cash,$10.00 ,50,1,50,,,
541,TX,1664,10X The Cash,$2.00 ,125,1,125,,,
542,TX,1665,20X The Cash,$5.00 ,75,1,75,,,
543,TX,1666,100X The Cash,$20.00 ,25,1,25,,,
544,TX,1667,Tetris,$2.00 ,125,1,125,,,
545,TX,1668,Win It all,$5.00 ,75,1,75,,,
546,TX,1669,1 Lottery Ticket,$1.00 ,150,1,150,,,
547,TX,1670,Hot Numbers,$5.00 ,75,1,75,,,
548,TX,1671,500 000 000 Cash,$20.00 ,25,1,25,,,
549,TX,1672,Wild Money Doubler,$2.00 ,125,1,125,,,
550,TX,1673,Raceway Riches,$5.00 ,75,1,75,,,
551,TX,1674,Money Money Money,$2.00 ,125,1,125,,,
552,TX,1675,Lucky 7s,$1.00 ,150,1,150,,,
553,TX,1676,Cash Countdown,$5.00 ,75,1,75,,,
554,TX,1678,COWBOYS,$5.00 ,75,1,75,,,
555,TX,1679,Houston texans,$5.00 ,75,1,75,,,
556,TX,1680,5X the cash,$1.00 ,150,1,150,,,
557,TX,1681,Fantastic 5s,$1.00 ,150,1,150,,,
558,TX,1682,10x The cash,$2.00 ,125,1,125,,,
559,TX,1683,Texas Loteria,$3.00 ,75,1,75,,,
560,TX,1684,Money Multiplier,$5.00 ,75,1,75,,,
561,TX,1685,Golden 7s,$5.00 ,75,1,75,,,
562,TX,1686,Cash and Gold,$5.00 ,75,1,75,,,
563,TX,1687,20x The Cash,$5.00 ,75,1,75,,,
564,TX,1688,200 000 Jackpot,$5.00 ,75,1,75,,,
565,TX,1690,cash frenzy,$5.00 ,75,1,75,,,
566,TX,1691,1 set for life,$1.00 ,150,1,150,,,
567,TX,1692,2 set for life,$2.00 ,125,1,125,,,
568,TX,1693,5 set for life,$5.00 ,75,1,75,,,
569,TX,1694,10 set for life,$10.00 ,50,1,50,,,
570,TX,1696,Texas Lotteria,$3.00 ,75,1,75,,,
571,TX,1698,Bingo Mania,$3.00 ,125,1,125,,,
572,TX,1700,Wild 1S,$1.00 ,150,1,150,,,
573,TX,1701,Blackjack,$1.00 ,150,1,150,,,
574,TX,1702,Funky 5s,$5.00 ,75,1,75,,,
575,TX,1703,Golden Ticket,$5.00 ,75,1,75,,,
576,TX,1704,100 000 Mega Bingo,$5.00 ,75,1,75,,,
577,TX,1705,Candy Blast,$2.00 ,125,1,125,,,
578,TX,1706,Super Ticket 7s,$10.00 ,50,1,50,,,
579,TX,1707,Cashword Multiplier,$10.00 ,50,1,50,,,
580,TX,1709,Bonus Break The Bank,$5.00 ,75,1,75,,,
581,TX,1710,Neon 9s,$2.00 ,125,1,125,,,
582,TX,1711,holiday game book,$20.00 ,25,1,25,,,
583,TX,1712,Scoop the cash blackjack,$1.00 ,150,1,150,,,
584,TX,1713,1 000 000 instant cashout,$20.00 ,25,1,25,,,
585,TX,1714,Cash Word,$3.00 ,125,1,125,,,
586,TX,1715,1000 cash word o rama,$5.00 ,75,1,75,,,
587,TX,1716,Cashword Multiplier,$10.00 ,50,1,50,,,
588,TX,1717,Emoji Match,$1.00 ,150,1,150,,,
589,TX,1718,Instant Jackpot,$5.00 ,75,1,75,,,
590,TX,1720,AMC The Walking Dead,$2.00 ,125,1,125,,,
591,TX,1721,777 sevens,$5.00 ,75,1,75,,,
592,TX,1722,seasons greetings,$1.00 ,150,1,150,,,
593,TX,1723,Merry Money,$5.00 ,75,1,75,,,
594,TX,1724,Stocking Stuffer,$2.00 ,125,1,125,,,
595,TX,1726,Happy Holidays,$10.00 ,50,1,50,,,
596,TX,1727,Mustach Money,$1.00 ,150,1,150,,,
597,TX,1728,Veterans cash,$2.00 ,125,1,125,,,
598,TX,1729,wild 10s,$5.00 ,75,1,75,,,
599,TX,1730,Lucky Gems Bingo,$2.00 ,125,1,125,,,
600,TX,1731,Holiday Treasures,$5.00 ,75,1,75,,,
601,TX,1733,Super Loteria,$5.00 ,75,1,75,,,
602,TX,1735,Hit 50 000,$2.00 ,125,1,125,,,
603,TX,1736,Hit 200000,$5.00 ,75,1,75,,,
604,TX,1737,Hit 500 000,$10.00 ,50,1,50,,,
605,TX,1738,hit 5 000,$1.00 ,150,1,150,,,
606,TX,1740,Hit 1 000 000,$20.00 ,25,1,25,,,
607,TX,1745,500 000 Money Mania,$20.00 ,25,1,25,,,
608,TX,1747,200000 DOUBLE PAYDAY,$5.00 ,75,1,75,,,
609,TX,1748,250000 cash,$10.00 ,50,1,50,,,
610,TX,1751,Fast Cash,$1.00 ,150,1,150,,,
611,TX,1768,high roller,$5.00 ,75,1,75,,,
612,TX,1778,Break the Bank,$2.00 ,125,1,125,,,
613,TX,1780,Solid Gold,$2.00 ,125,1,125,,,
614,TX,1783,WWE,$2.00 ,125,1,125,,,
615,TX,1784,Bonus Break The Bank,$5.00 ,75,1,75,,,
616,TX,1786,Lucky Multiplier,$3.00 ,125,1,125,,,
617,TX,1789,Texas Lotteria,$3.00 ,75,1,75,,,
618,TX,1790,"100,000 Mega Bingo",$5.00 ,75,1,75,,,
