INVOICE#,DATE,CUST#,NAME,ITEM#,DESCRIPTION,UNITS,AMOUNT,DEPARTMENT
2115382,10/7/2015,43567,PAULSBORO VALERO,65037,110 PREM NJ @CAMEL CRUSH BOX $.75 OFF,1,65.26,Candy
2115822,10/7/2015,43567,PAULSBORO VALERO,308394,300 BR24W STARBURST GUMMIBURST 24CT,1,15.07,Candy
2115822,10/7/2015,43567,PAULSBORO VALERO,300762,300 BR36H BARS WHATCHAMACALLIT 36CT,1,22.31,Candy
2115822,10/7/2015,43567,PAULSBORO VALERO,300516,300 BR48M BARS M&M PEANUT 48CT,1,29.74,Candy
2115822,10/7/2015,43567,PAULSBORO VALERO,304239,307C GUM BUBBLICIOUS SOUR APPLE 18CT,1,7.82,Candy
2115822,10/7/2015,43567,PAULSBORO VALERO,306610,314 BAGS PEG SATHERS CHERRY SLICES 2/$1.50 12CT,1,6.18,Candy
2115822,10/7/2015,43567,PAULSBORO VALERO,306619,314 BAGS PEG SATHERS GUMMALOS PEACH RINGS 2/$1.5,1,6.18,Candy
2115822,10/7/2015,43567,PAULSBORO VALERO,310191,314 BAGS PEG SATHERS JU JU FISH 2/$1.50 12CT,1,6.18,Candy
2115822,10/7/2015,43567,PAULSBORO VALERO,310189,314 BAGS PEG SATHERS SOUR NGHT CRWLR 2/$1.50 12CT,1,6.18,Candy
2115822,10/7/2015,43567,PAULSBORO VALERO,309366,316H KING SIZE HERSHEY MILK CHOC DROPS KING 18CT,1,20.35,Candy
2115822,10/7/2015,43567,PAULSBORO VALERO,301114,316H KING SIZE REESES PBC KING 24CT,1,27.13,Candy
2115822,10/7/2015,43567,PAULSBORO VALERO,309736,318 MINTS TUMS EX BERRIES 12CT,1,7.02,Candy
2115822,10/7/2015,43567,PAULSBORO VALERO,310091,318T MINTS TIC TAC BIG PACK STRAWBERRY FLD 12CT,1,9.91,Candy
2115822,10/7/2015,43567,PAULSBORO VALERO,309660,321 SP PEG/SNKS SP COMBOS Buffalo Blue Chz 6.3oz SP,3,4.77,Candy
2115822,10/7/2015,43567,PAULSBORO VALERO,304658,321 SP PEG/SNKS SP COMBOS Ched Ch Cracker 6.3oz SP,3,4.77,Candy
2115822,10/7/2015,43567,PAULSBORO VALERO,304661,321 SP PEG/SNKS SP COMBOS Pizza Pretzel 6.3oz SP,3,4.77,Candy
2115822,10/7/2015,43567,PAULSBORO VALERO,309511,321 SP PEG/SNKS SP LIFESAVERS GUMMIES 5FLAV PEG BAG,6,8.58,Candy
2115822,10/7/2015,43567,PAULSBORO VALERO,304676,321 SP PEG/SNKS SP M&M PEANUT PEG 5.6OZ,3,5.01,Candy
2115822,10/7/2015,43567,PAULSBORO VALERO,304681,321 SP PEG/SNKS SP SNICKERS PEG 4.4OZ,3,4.32,Candy
2115822,10/7/2015,43567,PAULSBORO VALERO,306842,321 SP PEG/SNKS SP SOUR PATCH KIDS PEG 5 OZ,6,5.52,Candy
2115822,10/7/2015,43567,PAULSBORO VALERO,309509,321 SP PEG/SNKS SP STARBURST GUMMIBURST PEG BAG 6oz,6,8.58,Candy
2115822,10/7/2015,43567,PAULSBORO VALERO,305854,321 SP PEG/SNKS SP SWEDISH FISH 5OZ PEG BAG,6,5.52,Candy
2115822,10/7/2015,43567,PAULSBORO VALERO,310888,321 SP PEG/SNKS SP WELCHS FRUIT SNACK ISLD FRT 5OZ,6,6.54,Candy
2115822,10/7/2015,43567,PAULSBORO VALERO,301437,900 HLTH & BTY ROLAIDS EXTRA FRUIT 10CT,1,6.79,Candy
2115822,10/7/2015,43567,PAULSBORO VALERO,900303,900 HLTH & BTY TROJAN ULTRA THIN LUBRICATED 6CT,1,9.95,Candy
2115822,10/7/2015,43567,PAULSBORO VALERO,900276,902 SP HBC SP ALCOHOL 16OZ,3,4.2,Candy
2115822,10/7/2015,43567,PAULSBORO VALERO,900578,902 SP HBC SP LADY SPEED STICK 1.5 OZ.,3,5.91,Candy
2115822,10/7/2015,43567,PAULSBORO VALERO,900277,902 SP HBC SP PEROXIDE 16OZ,3,2.76,Candy
2115822,10/7/2015,43567,PAULSBORO VALERO,61123,110 PREM NJ MARLBORO 100 BOX BP,1,72.78,Candy
2115822,10/7/2015,43567,PAULSBORO VALERO,62687,110 PREM NJ MARLBORO 100 MEN BOX BP,1,72.78,Candy
2115822,10/7/2015,43567,PAULSBORO VALERO,64025,110 PREM NJ MARLBORO 72'S BLUE PK BX BP,1,72.78,Candy
2115822,10/7/2015,43567,PAULSBORO VALERO,64574,110 PREM NJ MARLBORO 72'S SILVER BX BP,1,72.78,Candy
2115822,10/7/2015,43567,PAULSBORO VALERO,61124,110 PREM NJ MARLBORO GOLD 100'S BX BP,1,72.78,Candy
2115822,10/7/2015,43567,PAULSBORO VALERO,61416,110 PREM NJ MARLBORO GOLD BX BP,5,363.9,Candy
2115822,10/7/2015,43567,PAULSBORO VALERO,61395,110 PREM NJ MARLBORO KING BOX BP,4,291.12,Candy
2115822,10/7/2015,43567,PAULSBORO VALERO,61126,110 PREM NJ MARLBORO MEN GOLD 100'S BX BP,1,72.78,Candy
2115822,10/7/2015,43567,PAULSBORO VALERO,61427,110 PREM NJ MARLBORO MEN GOLD BX BP,1,72.78,Candy
2115822,10/7/2015,43567,PAULSBORO VALERO,62842,110 PREM NJ MARLBORO MEN SILVER BX BP,1,72.78,Candy
2115822,10/7/2015,43567,PAULSBORO VALERO,64956,110 PREM NJ MARLBORO MEN SKYLINE BOX BP,1,72.78,Candy
2115822,10/7/2015,43567,PAULSBORO VALERO,61130,110 PREM NJ MARLBORO RED LABEL 100'S BX BP,1,72.78,Candy
2115822,10/7/2015,43567,PAULSBORO VALERO,64891,110 PREM NJ MARLBORO SPECIAL BLEND GOLD BOX BP,1,72.78,Candy
2115822,10/7/2015,43567,PAULSBORO VALERO,61582,110 PREM NJ NEWPORT BOX,20,1546.4,Candy
2115822,10/7/2015,43567,PAULSBORO VALERO,61150,110 PREM NJ NEWPORT BOX 100,40,3092.8,Candy
2115822,10/7/2015,43567,PAULSBORO VALERO,65106,110 PREM NJ NEWPORT MEN SMOOTH SELECT BOX 100S,1,77.32,Candy
2115822,10/7/2015,43567,PAULSBORO VALERO,63327,110 PREM NJ NEWPORT MENTHOL BLUE BOX,1,77.32,Candy
2115822,10/7/2015,43567,PAULSBORO VALERO,63328,110 PREM NJ NEWPORT MENTHOL BLUE BOX 100,1,77.32,Candy
2115822,10/7/2015,43567,PAULSBORO VALERO,61152,110 PREM NJ NEWPORT MENTHOL GOLD BOX 100,1,77.32,Candy
2115822,10/7/2015,43567,PAULSBORO VALERO,61596,110 PREM NJ NEWPORT SOFT KING,1,77.32,Candy
2115822,10/7/2015,43567,PAULSBORO VALERO,63558,110 PREM NJ PARLIAMENT MEN SILVER BX BP,1,76.26,Candy
2115822,10/7/2015,43567,PAULSBORO VALERO,61935,110 PREM NJ PARLIAMENT MEN WHITE BX BP,1,76.26,Candy
2115822,10/7/2015,43567,PAULSBORO VALERO,63461,110 PREM NJ SALEM BX KS,1,72.76,Candy
2115822,10/7/2015,43567,PAULSBORO VALERO,61215,110 PREM NJ WINSTON GOLD 100 BOX,1,72.76,Candy
2115822,10/7/2015,43567,PAULSBORO VALERO,64124,111 DISC NJ AMERICAN SPIRIT MEN BX MELLOW GRN,1,76.79,Candy
2115822,10/7/2015,43567,PAULSBORO VALERO,65066,111 DISC NJ PALL MALL WHITE 100 BOX MEN,1,68.52,Candy
2115822,10/7/2015,43567,PAULSBORO VALERO,64054,112 SUB GEN NJ MAVERICK BOX KING,1,59.67,Candy
2115822,10/7/2015,43567,PAULSBORO VALERO,62562,112 SUB GEN NJ MAVERICK GOLD BOX,1,59.67,Candy
2115822,10/7/2015,43567,PAULSBORO VALERO,64056,112 SUB GEN NJ MAVERICK MENTHOL BOX,2,119.34,Candy
2115822,10/7/2015,43567,PAULSBORO VALERO,64057,112 SUB GEN NJ MAVERICK MENTHOL BOX 100,6,358.02,Candy
2115822,10/7/2015,43567,PAULSBORO VALERO,61360,112 SUB GEN NJ MISTY MEN GREEN 100 BOX,1,65.87,Candy
2115822,10/7/2015,43567,PAULSBORO VALERO,63544,112 SUB GEN NJ USA GOLD MEN FLT 100S BOX,1,62.7,Candy
2115822,10/7/2015,43567,PAULSBORO VALERO,62862,112 SUB GEN NJ USA GOLD RED KING BOX,1,62.7,Candy
2115822,10/7/2015,43567,PAULSBORO VALERO,153694,1507A SNUS TOB CAMEL SNUS FROST LARGE 5CT,2,26.4,Candy
2115822,10/7/2015,43567,PAULSBORO VALERO,152442,1548 DSP/RFLTR BIC ASTROLOGY 50CT,1,53.26,Candy
2115822,10/7/2015,43567,PAULSBORO VALERO,150628,1548 DSP/RFLTR BIC CHILD GUARD 50CT.TRAY,1,42.05,Candy
2115822,10/7/2015,43567,PAULSBORO VALERO,190227,1901 PAPER BAGS PLASTIC T SHIRT BAG WHITE,2,24.9,Candy
2115822,10/7/2015,43567,PAULSBORO VALERO,509146,1301B C&C COLA C&C FRUIT PUNCH 2LTR 8CT,1,7.2,Candy
2115822,10/7/2015,43567,PAULSBORO VALERO,509150,1301B C&C COLA C&C PINEAPPLE 2LTR 8CT,1,7.2,Candy
2115822,10/7/2015,43567,PAULSBORO VALERO,500290,1303 WATER POLAND SPRING 12/1.5 LITR,1,11.52,Candy
2115822,10/7/2015,43567,PAULSBORO VALERO,506604,1303 WATER POLAND SPRING 28/24OZ NON DEPOSIT,1,12.28,Candy
2115822,10/7/2015,43567,PAULSBORO VALERO,504133,1304 DRINKS GATORADE COOL BLUE 12/32oz,1,14.99,Candy
2115822,10/7/2015,43567,PAULSBORO VALERO,504127,1304 DRINKS GATORADE FIERCE STRAWBERRY 12/32OZ,1,14.99,Candy
2115822,10/7/2015,43567,PAULSBORO VALERO,501594,1304 DRINKS GATORADE FROST GLACIER FREEZE 12/32,1,14.99,Candy
2115822,10/7/2015,43567,PAULSBORO VALERO,500834,1304 DRINKS GATORADE ORANGE 12/32OZ,1,14.99,Candy
2115822,10/7/2015,43567,PAULSBORO VALERO,501478,1304 DRINKS THURST BURST BLUE RASP 24/16 OZ,1,8.34,Candy
2115822,10/7/2015,43567,PAULSBORO VALERO,501476,1304 DRINKS THURST BURST GRAPE 24/16 OZ,1,8.34,Candy
2115822,10/7/2015,43567,PAULSBORO VALERO,17,600 WEB SPECIAL TELXON ORDER - NO CHARGE,1,0,Candy
2115822,10/7/2015,43567,PAULSBORO VALERO,500765,501A 24CT SP CARN. EVAPOR MILK 120Z,3,4.41,Candy
2115822,10/7/2015,43567,PAULSBORO VALERO,501703,501A 24CT SP TOP RAMEN NDLS ORIENTAL 3OZ,3,0.96,Candy
2115822,10/7/2015,43567,PAULSBORO VALERO,501761,501A 48CT SP TOP RAMEN NOODLE BEEF 3OZ,3,0.96,Candy
2115822,10/7/2015,43567,PAULSBORO VALERO,501766,501A 48CT SP TOP RAMEN CHICKEN 3OZ,3,0.96,Candy
2115822,10/7/2015,43567,PAULSBORO VALERO,503679,501A 48CT SP TOP RAMEN NDLS SHRIMP 3OZ,3,0.96,Candy
2115822,10/7/2015,43567,PAULSBORO VALERO,501790,501A SP GROCERY SP CB MWAVE BEEF RAVIOLI 7.5OZ,3,3.45,Candy
2115822,10/7/2015,43567,PAULSBORO VALERO,500662,501A SP GROCERY SP HELLMANS Mayo 15oz SP,3,10.08,Candy
2115822,10/7/2015,43567,PAULSBORO VALERO,500641,501A SP GROCERY SP HORMEL CHILI W/BEAN 15OZ,3,5.61,Candy
2115822,10/7/2015,43567,PAULSBORO VALERO,500614,501A SP GROCERY SP KIKKOMAN SOY SCE 10OZ,3,5.43,Candy
2115822,10/7/2015,43567,PAULSBORO VALERO,500704,501A SP GROCERY SP OPEN PIT BBQ SCE 18OZ,3,6.51,Candy
2115822,10/7/2015,43567,PAULSBORO VALERO,503644,501B 12CT SP FRISKIES DRY Seafood Sen 16.2z SP,3,4.95,Candy
2115822,10/7/2015,43567,PAULSBORO VALERO,503171,501B 12CT SP LIPTON TEA BAGS 20CT,3,4.62,Candy
2115822,10/7/2015,43567,PAULSBORO VALERO,503168,501B 12CT SP PEDIGREE CHOICE CT BEEF 13.2OZ,4,3.92,Candy
2115822,10/7/2015,43567,PAULSBORO VALERO,503170,501B 12CT SP PEDIGREE STEW 13.2OZ,3,2.94,Candy
2115822,10/7/2015,43567,PAULSBORO VALERO,500741,501C 12CT SP HEFTY LAWN BAG 10CT,4,18.36,Candy
2115822,10/7/2015,43567,PAULSBORO VALERO,500700,501C MISC CASE SP REYNOLDS ALUM FOIL 12X30F,4,6.92,Candy
2115822,10/7/2015,43567,PAULSBORO VALERO,507213,501D SP HOUSEHD SP DAWN ULTRA LIQUID 9OZ,3,4.35,Candy
2115822,10/7/2015,43567,PAULSBORO VALERO,503777,501D SP HOUSEHD SP DOVE SOAP REG WHITE 3.15Z,3,4.41,Candy
2115822,10/7/2015,43567,PAULSBORO VALERO,501649,531 PAPER PROD BOUNTY BUNDLE PACK 15/1'S,1,16.89,Candy
2115822,10/7/2015,43567,PAULSBORO VALERO,506214,531 PAPER PROD SCOTT BATH TISSUE 36CT BUNDLE PACK,1,24.6,Candy
2115822,10/7/2015,43567,PAULSBORO VALERO,508943,555 GENERIC GRC JONNY CAT LITTER 3-10LBS,1,6.49,Candy
2115822,10/7/2015,43567,PAULSBORO VALERO,505024,554 FOOD SV FRZ TORNADOS SOUTHWEST CHICKEN 24CT,1,16.92,Candy
2115822,10/7/2015,43567,PAULSBORO VALERO,504041,561 FD SVC-DRY KELL FROSTED FLAKES CEREAL CUP 6CT,1,5.74,Candy
2115822,10/7/2015,43567,PAULSBORO VALERO,302842,304 COOKIES KELL.POPTART BR.SUGAR CINN.S/S 6C,1,3.28,Candy
2115822,10/7/2015,43567,PAULSBORO VALERO,303427,304 COOKIES KELL.POPTART FRST CHERRY S/S 6CT,1,3.28,Candy
2115822,10/7/2015,43567,PAULSBORO VALERO,303479,319 SALTY SNKS NAT GRANOLA OATS HONEY 18CT,1,7.06,Candy
2115822,10/7/2015,43567,PAULSBORO VALERO,309617,319 SP DAVID SK SP DAVID JUMBO SUNFL BUFF RNCH 5.25Z,3,3.75,Candy
2115822,10/7/2015,43567,PAULSBORO VALERO,310370,319 SP DAVID SK SP DAVID JUMBO SUNFL CRAC PEPPR 5.25,3,3.75,Candy
2115822,10/7/2015,43567,PAULSBORO VALERO,304602,319 SP DAVID SK SP DAVID SUNFLOWER RANCH 5.25OZ,4,4.08,Candy
2115822,10/7/2015,43567,PAULSBORO VALERO,303066,319 SP PLNTR SK SP PLANTERS BIG BAG HR CASHEW 3OZ,3,3.87,Candy
2115822,10/7/2015,43567,PAULSBORO VALERO,307385,319K KELL SNK SUNSHINE CHEEZ-IT 3oz 6CT,1,5.28,Candy
2115822,10/7/2015,43567,PAULSBORO VALERO,308443,319P PLNTR SNK PLANTERS PISTACHIOS 1.75OZ 12CT,1,14.99,Candy
2115822,10/7/2015,43567,PAULSBORO VALERO,309090,332 MEAT SNKS JACK LINKS SWT & HOT BEEF JRK 1.25OZ,1,23.29,Candy
2115822,10/7/2015,43567,PAULSBORO VALERO,308018,332 MEAT SNKS SLIM JIM MONSTER ORIGINAL 18CT,1,26.57,Candy
2115822,10/7/2015,43567,PAULSBORO VALERO,192580,1926 CONDIMENTS INT'L DELIGHT HALF&HALF 384CT,1,18.59,Candy
2115822,10/7/2015,43567,PAULSBORO VALERO,509363,1929 COLD BEVER JOLLY RANCHER BLUE RASP FUB.5GAL 6CT,1,72.5,Candy
2115822,10/7/2015,43567,PAULSBORO VALERO,509362,1929 COLD BEVER JOLLY RANCHER CHERRY FUB .5GAL 6CT,1,72.5,Candy
2115822,10/7/2015,43567,PAULSBORO VALERO,190932,1903 AUTO CHEM SP STP FUEL INJ CLEANER 5.25OZ,3,7.74,Candy
2115822,10/7/2015,43567,PAULSBORO VALERO,199035,1903 AUTO CHEM SP STP POWER STEERING FLUID 12OZ,3,4.95,Candy
2115822,10/7/2015,43567,PAULSBORO VALERO,199027,1903 AUTO CHEM SUNOCO ULTRA 10W30 MOTOR OIL 12/1QT,1,27.11,Candy
2115822,10/7/2015,43567,PAULSBORO VALERO,199026,1903 AUTO CHEM SUNOCO ULTRA 10W40 MOTOR OIL 12/1QT,1,27.41,Candy
2115822,10/7/2015,43567,PAULSBORO VALERO,199024,1903 AUTO CHEM SUNOCO ULTRA 5W20 MOTOR OIL 12/1QT,1,27.44,Candy
2115822,10/7/2015,43567,PAULSBORO VALERO,199028,1903 AUTO CHEM SUNOCO ULTRA 5W30 MOTOR OIL 12/1QT,2,55.38,Candy
2115822,10/7/2015,43567,PAULSBORO VALERO,194091,1918 SP AUTOMTV SP WINNERS CIRCLE 2 CYC OIL 8Z,3,3.27,Candy
2115822,10/7/2015,43567,PAULSBORO VALERO,194093,1918 SP AUTOMTV SP WINNERS CIRCLE BRAKE FLD 12Z DOT3,3,4.23,Candy
2115822,10/7/2015,43567,PAULSBORO VALERO,194092,1918 SP AUTOMTV SP WINNERS CIRCLE PWR STEER FLD 12OZ,4,7.6,Candy
2115824,10/7/2015,43567,PAULSBORO VALERO,65054,111 DISC NJ @PALL MALL BLUE 100 BX B1G $.50 OFF,1,63.52,Candy
2115824,10/7/2015,43567,PAULSBORO VALERO,65056,111 DISC NJ @PALL MALL RED 100 BX B1G $.50 OFF,1,63.52,Candy
2139305,10/14/2015,43567,PAULSBORO VALERO,65072,110 PREM NJ @NEWPORT BOX 100 B1G $.50 OFF,12,867.84,Candy
2139305,10/14/2015,43567,PAULSBORO VALERO,65071,110 PREM NJ @NEWPORT BOX KS B1G $.50 OFF,12,867.84,Candy
2139308,10/14/2015,43567,PAULSBORO VALERO,65020,110 PREM NJ @CAMEL BLUE BX $0.75 OFF PK,1,65.26,Candy
2139308,10/14/2015,43567,PAULSBORO VALERO,65019,110 PREM NJ @CAMEL FILTER BX $0.75 OFF PK,1,65.26,Candy
2139317,10/14/2015,43567,PAULSBORO VALERO,13,1900 MISCELLANS UST TOBACCO PREBOOK,1,0,Candy
2139317,10/14/2015,43567,PAULSBORO VALERO,177060,1803 BLACK MILD BLK&MLD CIGAR $4.29 10/5PK,4,90.72,Candy
2139317,10/14/2015,43567,PAULSBORO VALERO,177062,1803 BLACK MILD BLK&MLD WINE $4.29 10/5PK,1,22.68,Candy
2139319,10/14/2015,43567,PAULSBORO VALERO,13,1900 MISCELLANS UST TOBACCO PREBOOK,1,0,Candy
2139319,10/14/2015,43567,PAULSBORO VALERO,176494,1803 BLACK MILD BLK&MLD $.79 BX25,2,18.36,Candy
2139319,10/14/2015,43567,PAULSBORO VALERO,176496,1803 BLACK MILD BLK&MLD WINE $.79 BX25,1,9.18,Candy
2139664,10/14/2015,43567,PAULSBORO VALERO,309081,300 BARS AIRHEADS XTREMES BLU RASP BELT 18CT,1,11.35,Candy
2139664,10/14/2015,43567,PAULSBORO VALERO,300268,300 BR24 BARS SOUR PUNCH APPLE 24CT,1,15.06,Candy
2139664,10/14/2015,43567,PAULSBORO VALERO,300761,300 BR36H BARS KIT KAT 36CT,1,22.31,Candy
2139664,10/14/2015,43567,PAULSBORO VALERO,300200,300 BR48M BARS M&M PLAIN 48CT,1,29.74,Candy
2139664,10/14/2015,43567,PAULSBORO VALERO,301201,300 SOUR PATCH SWEDISH FISH 24CT,1,13.83,Candy
2139664,10/14/2015,43567,PAULSBORO VALERO,312468,303 CHANGE MKR BARON TRUFFLE MILK CHOC 60CT,1,11.03,Candy
2139664,10/14/2015,43567,PAULSBORO VALERO,310449,307C GUM TRIDENT VAL/PK MINT BLISS 12CT,1,8.69,Candy
2139664,10/14/2015,43567,PAULSBORO VALERO,306554,307W GUM HUBBA BUBBA MAX STRAW/WATERM 18CT,1,7.54,Candy
2139664,10/14/2015,43567,PAULSBORO VALERO,303671,307W GUM WRIG ECLIPSE SPEARMINT 8CT,1,6.27,Candy
2139664,10/14/2015,43567,PAULSBORO VALERO,308679,307W GUM WRIG EXTRA SLIM PK SPEARMINT 10CT,1,7.18,Candy
2139664,10/14/2015,43567,PAULSBORO VALERO,304895,307WO ORBIT WRIG ORBIT S/F PEPPERMINT 12CT,1,9.21,Candy
2139664,10/14/2015,43567,PAULSBORO VALERO,300492,307WP WRIGLEY WRIG 40CT DOUBLEMINT .35,1,7.33,Candy
2139664,10/14/2015,43567,PAULSBORO VALERO,300493,307WP WRIGLEY WRIG 40CT JUICFRUIT .35,1,7.33,Candy
2139664,10/14/2015,43567,PAULSBORO VALERO,300491,307WP WRIGLEY WRIG 40CT SPEARMINT .35,1,7.33,Candy
2139664,10/14/2015,43567,PAULSBORO VALERO,300495,307WP WRIGLEY WRIG 40CT WINTER .35,1,7.33,Candy
2139664,10/14/2015,43567,PAULSBORO VALERO,306594,314 BAGS PEG SATHERS CANDY CORN 2/$1.50 12CT,1,6.18,Candy
2139664,10/14/2015,43567,PAULSBORO VALERO,306590,314 BAGS PEG SATHERS CARAMEL CREMES 2/$1.50 12CT,1,6.18,Candy
2139664,10/14/2015,43567,PAULSBORO VALERO,306574,314 BAGS PEG SATHERS DUM DUM POPS 2/$1.50 12CT,1,6.18,Candy
2139664,10/14/2015,43567,PAULSBORO VALERO,307136,314 BAGS PEG SATHERS GUMMALLOS APPLE RINGS 2/$1.5,1,6.18,Candy
2139664,10/14/2015,43567,PAULSBORO VALERO,310192,314 BAGS PEG SATHERS GUMMALLOS MELON RINGS 2/1.50,1,6.18,Candy
2139664,10/14/2015,43567,PAULSBORO VALERO,306617,314 BAGS PEG SATHERS GUMMI WORMS 2/$1.5 12CT,1,6.18,Candy
2139664,10/14/2015,43567,PAULSBORO VALERO,309736,318 MINTS TUMS EX BERRIES 12CT,1,7.02,Candy
2139664,10/14/2015,43567,PAULSBORO VALERO,309511,321 SP PEG/SNKS SP LIFESAVERS GUMMIES 5FLAV PEG BAG,3,4.29,Candy
2139664,10/14/2015,43567,PAULSBORO VALERO,304676,321 SP PEG/SNKS SP M&M PEANUT PEG 5.6OZ,6,10.02,Candy
2139664,10/14/2015,43567,PAULSBORO VALERO,304673,321 SP PEG/SNKS SP REESES PB CUP PEG BAG 5.3OZ,3,5.01,Candy
2139664,10/14/2015,43567,PAULSBORO VALERO,304674,321 SP PEG/SNKS SP REESES PIECES PEG BAG 6oz,3,5.01,Candy
2139664,10/14/2015,43567,PAULSBORO VALERO,304682,321 SP PEG/SNKS SP STARBURST ORIGINAL PEG BAG 7.2OZ,4,5.72,Candy
2139664,10/14/2015,43567,PAULSBORO VALERO,305854,321 SP PEG/SNKS SP SWEDISH FISH 5OZ PEG BAG,6,5.52,Candy
2139664,10/14/2015,43567,PAULSBORO VALERO,900516,900 HLTH & BTY SECRET PWD FSH 1.7Z/6PK,1,11.94,Candy
2139664,10/14/2015,43567,PAULSBORO VALERO,900305,900 HLTH & BTY TROJAN MAGNUM LUBRICATED 6CT,1,9.75,Candy
2139664,10/14/2015,43567,PAULSBORO VALERO,62076,110 PREM NJ CAMEL CRUSH REG 85 BOX MEN,1,72.76,Candy
2139664,10/14/2015,43567,PAULSBORO VALERO,61297,110 PREM NJ KOOL BOX KING,1,72.76,Candy
2139664,10/14/2015,43567,PAULSBORO VALERO,61123,110 PREM NJ MARLBORO 100 BOX BP,1,72.78,Candy
2139664,10/14/2015,43567,PAULSBORO VALERO,62687,110 PREM NJ MARLBORO 100 MEN BOX BP,1,72.78,Candy
2139664,10/14/2015,43567,PAULSBORO VALERO,61124,110 PREM NJ MARLBORO GOLD 100'S BX BP,1,72.78,Candy
2139664,10/14/2015,43567,PAULSBORO VALERO,61416,110 PREM NJ MARLBORO GOLD BX BP,4,291.12,Candy
2139664,10/14/2015,43567,PAULSBORO VALERO,61395,110 PREM NJ MARLBORO KING BOX BP,3,218.34,Candy
2139664,10/14/2015,43567,PAULSBORO VALERO,61126,110 PREM NJ MARLBORO MEN GOLD 100'S BX BP,1,72.78,Candy
2139664,10/14/2015,43567,PAULSBORO VALERO,61427,110 PREM NJ MARLBORO MEN GOLD BX BP,1,72.78,Candy
2139664,10/14/2015,43567,PAULSBORO VALERO,61438,110 PREM NJ MARLBORO MEN KING BOX BP,1,72.78,Candy
2139664,10/14/2015,43567,PAULSBORO VALERO,62527,110 PREM NJ MARLBORO SILVER BOX BP,1,72.78,Candy
2139664,10/14/2015,43567,PAULSBORO VALERO,65091,110 PREM NJ MARLBORO SOUTHERN CUT BOX,1,72.78,Candy
2139664,10/14/2015,43567,PAULSBORO VALERO,64914,110 PREM NJ MARLBORO SPECIAL BLEND GOLD BOX 100,1,72.78,Candy
2139664,10/14/2015,43567,PAULSBORO VALERO,61147,110 PREM NJ NEWPORT 100,1,77.32,Candy
2139664,10/14/2015,43567,PAULSBORO VALERO,61582,110 PREM NJ NEWPORT BOX,5,386.6,Candy
2139664,10/14/2015,43567,PAULSBORO VALERO,61150,110 PREM NJ NEWPORT BOX 100,30,2319.6,Candy
2139664,10/14/2015,43567,PAULSBORO VALERO,63328,110 PREM NJ NEWPORT MENTHOL BLUE BOX 100,1,77.32,Candy
2139664,10/14/2015,43567,PAULSBORO VALERO,61152,110 PREM NJ NEWPORT MENTHOL GOLD BOX 100,1,77.32,Candy
2139664,10/14/2015,43567,PAULSBORO VALERO,64959,110 PREM NJ NEWPORT NON-MENTHOL BOX 100,1,62.92,Candy
2139664,10/14/2015,43567,PAULSBORO VALERO,63558,110 PREM NJ PARLIAMENT MEN SILVER BX BP,1,76.26,Candy
2139664,10/14/2015,43567,PAULSBORO VALERO,61652,110 PREM NJ PARLIAMENT WHITE BOX BP,1,76.26,Candy
2139664,10/14/2015,43567,PAULSBORO VALERO,61209,110 PREM NJ VIRGINIA SLIM MEN SILVER BX BP,1,76.69,Candy
2139664,10/14/2015,43567,PAULSBORO VALERO,61215,110 PREM NJ WINSTON GOLD 100 BOX,1,72.76,Candy
2139664,10/14/2015,43567,PAULSBORO VALERO,61585,111 DISC NJ AMERICAN SPIRIT MEN 85 BX DARK GREEN,1,76.79,Candy
2139664,10/14/2015,43567,PAULSBORO VALERO,63317,111 DISC NJ PALL MALL BLUE KS BX,1,68.52,Candy
2139664,10/14/2015,43567,PAULSBORO VALERO,63320,111 DISC NJ PALL MALL MEN 100 BOX,1,68.52,Candy
2139664,10/14/2015,43567,PAULSBORO VALERO,63315,111 DISC NJ PALL MALL RED KS BOX,1,68.52,Candy
2139664,10/14/2015,43567,PAULSBORO VALERO,64055,112 SUB GEN NJ MAVERICK BOX 100,2,119.34,Candy
2139664,10/14/2015,43567,PAULSBORO VALERO,64058,112 SUB GEN NJ MAVERICK GOLD BOX 100,1,59.67,Candy
2139664,10/14/2015,43567,PAULSBORO VALERO,64056,112 SUB GEN NJ MAVERICK MENTHOL BOX,2,119.34,Candy
2139664,10/14/2015,43567,PAULSBORO VALERO,64057,112 SUB GEN NJ MAVERICK MENTHOL BOX 100,6,358.02,Candy
2139664,10/14/2015,43567,PAULSBORO VALERO,153694,1507A SNUS TOB CAMEL SNUS FROST LARGE 5CT,1,13.2,Candy
2139664,10/14/2015,43567,PAULSBORO VALERO,152188,1548 DSP/RFLTR BIC FLICK YOUR BIC 50CT,1,47.65,Candy
2139664,10/14/2015,43567,PAULSBORO VALERO,190227,1901 PAPER BAGS PLASTIC T SHIRT BAG WHITE,2,24.9,Candy
2139664,10/14/2015,43567,PAULSBORO VALERO,509149,1301B C&C COLA C&C ORANGE 2LTR 8CT,1,7.2,Candy
2139664,10/14/2015,43567,PAULSBORO VALERO,500290,1303 WATER POLAND SPRING 12/1.5 LITR,1,11.52,Candy
2139664,10/14/2015,43567,PAULSBORO VALERO,500289,1303 WATER POLAND SPRING 18/1 LITRE,1,12.25,Candy
2139664,10/14/2015,43567,PAULSBORO VALERO,506604,1303 WATER POLAND SPRING 28/24OZ NON DEPOSIT,2,24.56,Candy
2139664,10/14/2015,43567,PAULSBORO VALERO,502464,1304 DRINKS GATORADE FIERCE GRAPE 12/32OZ,1,14.99,Candy
2139664,10/14/2015,43567,PAULSBORO VALERO,500831,1304 DRINKS GATORADE FRT/PUNCH 12/32OZ,1,14.99,Candy
2139664,10/14/2015,43567,PAULSBORO VALERO,500836,1304 DRINKS GATORADE LEM/LIME 12/32OZ,1,14.99,Candy
2139664,10/14/2015,43567,PAULSBORO VALERO,504812,1304 DRINKS GATORADE WIDE COOL BLUE 24/20OZ,1,17.99,Candy
2139664,10/14/2015,43567,PAULSBORO VALERO,501958,1304 DRINKS GATORADE WIDE LEMON LIME 24/20OZ,1,17.99,Candy
2139664,10/14/2015,43567,PAULSBORO VALERO,500023,1304 DRINKS GATORADE WIDE ORANGE 24/20OZ,1,17.99,Candy
2139664,10/14/2015,43567,PAULSBORO VALERO,17,600 WEB SPECIAL TELXON ORDER - NO CHARGE,1,0,Candy
2139664,10/14/2015,43567,PAULSBORO VALERO,500774,501A 24CT SP A&H BAKE/SODA 16OZ,3,2.4,Candy
2139664,10/14/2015,43567,PAULSBORO VALERO,500578,501A 24CT SP DOMINO SUG. 1LB. GRANULATED,3,3.21,Candy
2139664,10/14/2015,43567,PAULSBORO VALERO,500749,501A 24CT SP DOMINO SUG. 2LB BAG,3,4.68,Candy
2139664,10/14/2015,43567,PAULSBORO VALERO,504686,501A 24CT SP FRANKS HOT SAUCE 5OZ,3,3.36,Candy
2139664,10/14/2015,43567,PAULSBORO VALERO,501775,501A 24CT SP MORTON IODIZED SALT 26OZ,3,2.55,Candy
2139664,10/14/2015,43567,PAULSBORO VALERO,501761,501A 48CT SP TOP RAMEN NOODLE BEEF 3OZ,6,1.92,Candy
2139664,10/14/2015,43567,PAULSBORO VALERO,501766,501A 48CT SP TOP RAMEN CHICKEN 3OZ,6,1.92,Candy
2139664,10/14/2015,43567,PAULSBORO VALERO,501606,501A MISC CASE SP KELL Frosted Flakes 10.5oz,3,12.36,Candy
2139664,10/14/2015,43567,PAULSBORO VALERO,505782,501A SP GROCERY SP CB MW BIG BOWL MINI RAVIOLI 14.25,3,5.55,Candy
2139664,10/14/2015,43567,PAULSBORO VALERO,501763,501A SP GROCERY SP GM Honey Nut Cheerios 12.25oz SP,3,11.76,Candy
2139664,10/14/2015,43567,PAULSBORO VALERO,500725,501A SP GROCERY SP KELL FROOT LOOPS 8.7OZ SP,3,11.01,Candy
2139664,10/14/2015,43567,PAULSBORO VALERO,509317,501A SP GROCERY SP LIPTON TEA I/W 100CT FOODSVC,3,12.6,Candy
2139664,10/14/2015,43567,PAULSBORO VALERO,500776,501B 12CT SP ALPO PRIME CUTS CHICKEN 13.2oz,3,2.82,Candy
2139664,10/14/2015,43567,PAULSBORO VALERO,503631,501B 12CT SP ALPO Prime Cuts Beef 13.2oz SP,3,2.82,Candy
2139664,10/14/2015,43567,PAULSBORO VALERO,503645,501B 12CT SP FRISKIES DRY Indoor Del 16.2z SP,3,4.95,Candy
2139664,10/14/2015,43567,PAULSBORO VALERO,503167,501B 12CT SP PEDIGREE CHUNKY CHICKEN 13.2 OZ,4,3.92,Candy
2139664,10/14/2015,43567,PAULSBORO VALERO,503170,501B 12CT SP PEDIGREE STEW 13.2OZ,4,3.92,Candy
2139664,10/14/2015,43567,PAULSBORO VALERO,503663,501B 6CT SP MEOW MIX DRY 18OZ,3,5.88,Candy
2139664,10/14/2015,43567,PAULSBORO VALERO,500740,501C 12CT SP HEFTY KITCH BAG 18CT,3,8.76,Candy
2139664,10/14/2015,43567,PAULSBORO VALERO,507213,501D SP HOUSEHD SP DAWN ULTRA LIQUID 9OZ,3,4.35,Candy
2139664,10/14/2015,43567,PAULSBORO VALERO,503777,501D SP HOUSEHD SP DOVE SOAP REG WHITE 3.15Z,3,4.41,Candy
2139664,10/14/2015,43567,PAULSBORO VALERO,500657,501D SP HOUSEHD SP MR CLEAN 24OZ,3,5.7,Candy
2139664,10/14/2015,43567,PAULSBORO VALERO,501649,531 PAPER PROD BOUNTY BUNDLE PACK 15/1'S,1,16.89,Candy
2139664,10/14/2015,43567,PAULSBORO VALERO,506214,531 PAPER PROD SCOTT BATH TISSUE 36CT BUNDLE PACK,1,24.6,Candy
2139664,10/14/2015,43567,PAULSBORO VALERO,502857,554 FOOD SV FRZ ROLLERBITES CHEESEBURGER 40/2.5OZ,1,32.17,Candy
2139664,10/14/2015,43567,PAULSBORO VALERO,505024,554 FOOD SV FRZ TORNADOS SOUTHWEST CHICKEN 24CT,1,16.92,Candy
2139664,10/14/2015,43567,PAULSBORO VALERO,502933,557 FROZEN PROD SP BANQUET B&S ORIGINAL LINK 6.4OZ,3,4.47,Candy
2139664,10/14/2015,43567,PAULSBORO VALERO,500833,561 FD SVC-DRY PC KETCHUP 1000CT,1,35.98,Candy
2139664,10/14/2015,43567,PAULSBORO VALERO,500820,561 FD SVC-DRY PC MAYO 200CT,1,22.65,Candy
2139664,10/14/2015,43567,PAULSBORO VALERO,302840,304 COOKIES KELL.POPTART STRAW. SINGLESERV 6CT,1,3.28,Candy
2139664,10/14/2015,43567,PAULSBORO VALERO,300390,304NAB COOKIES NAB S/S OREO 12CT,1,5.1,Candy
2139664,10/14/2015,43567,PAULSBORO VALERO,306280,319 SALTY SNKS ANDY CAPPS HOT FRIES PP .99 12CT,1,9.1,Candy
2139664,10/14/2015,43567,PAULSBORO VALERO,307054,319 SALTY SNKS NAT GRAN SWT & SLT ALMOND 16CT,1,6.28,Candy
2139664,10/14/2015,43567,PAULSBORO VALERO,301110,319 SP DAVID SK SP DAVID & SON SUNFL/SEED BBQ 5 OZ,3,3.06,Candy
2139664,10/14/2015,43567,PAULSBORO VALERO,310370,319 SP DAVID SK SP DAVID JUMBO SUNFL CRAC PEPPR 5.25,3,3.75,Candy
2139664,10/14/2015,43567,PAULSBORO VALERO,304604,319 SP DAVID SK SP DAVID SUNFLOWER KERNELS 3.75OZ,3,3,Candy
2139664,10/14/2015,43567,PAULSBORO VALERO,304602,319 SP DAVID SK SP DAVID SUNFLOWER RANCH 5.25OZ,3,3.06,Candy
2139664,10/14/2015,43567,PAULSBORO VALERO,310109,319K KELL SNK CHEEZ IT DUOZ SHARP CHEDD/PARM 6CT,1,7.11,Candy
2139664,10/14/2015,43567,PAULSBORO VALERO,312369,319K KELL SNK CHEEZ IT GROOVES WHITE CHED 6CT,1,6.99,Candy
2139664,10/14/2015,43567,PAULSBORO VALERO,303025,319K KELL SNK SUNSHINE CHEEZ -IT 8CT,1,4.15,Candy
2139664,10/14/2015,43567,PAULSBORO VALERO,307385,319K KELL SNK SUNSHINE CHEEZ-IT 3oz 6CT,1,5.28,Candy
2139664,10/14/2015,43567,PAULSBORO VALERO,308443,319P PLNTR SNK PLANTERS PISTACHIOS 1.75OZ 12CT,1,14.99,Candy
2139664,10/14/2015,43567,PAULSBORO VALERO,310161,319P PLNTR SNK PLANTERS TUBE DRY RST PEANUTS 18CT,1,6.11,Candy
2139664,10/14/2015,43567,PAULSBORO VALERO,303070,319P PLNTR SNK PLANTERS TUBE HEAT PEANUTS 18CT,1,6.11,Candy
2139664,10/14/2015,43567,PAULSBORO VALERO,303062,319P PLNTR SNK PLANTERS TUBE HNY RST PEANUT 18CT,1,6.11,Candy
2139664,10/14/2015,43567,PAULSBORO VALERO,303061,319P PLNTR SNK PLANTERS TUBE SALTED PEANUT 18CT,1,6.11,Candy
2139664,10/14/2015,43567,PAULSBORO VALERO,309040,332 MEAT SNKS JACK LINKS SASQUATCH ORIGINAL 24CT,1,35.1,Candy
2139664,10/14/2015,43567,PAULSBORO VALERO,304106,543 SP COOKIE SP NAB B B RITZ BITS PNB BTTR,4,3.72,Candy
2139664,10/14/2015,43567,PAULSBORO VALERO,312134,543 SP COOKIE SP NAB BIG BAG MINI OREO 3OZ,3,2.76,Candy
2139664,10/14/2015,43567,PAULSBORO VALERO,312136,543 SP COOKIE SP NAB BIG BAG NUTTER BUTTER 3OZ,4,3.72,Candy
2139664,10/14/2015,43567,PAULSBORO VALERO,312137,543 SP COOKIE SP NAB BIG BAG RITZ BITS CHZ 3OZ,4,3.72,Candy
2139664,10/14/2015,43567,PAULSBORO VALERO,190763,1923 TEA BIGELOW COZY CHAMOMILE TEA 28CT,1,4.02,Candy
2139664,10/14/2015,43567,PAULSBORO VALERO,190969,1923 TEA BIGELOW CRANBERRY APPLE TEA 28CT,1,4.02,Candy
2139664,10/14/2015,43567,PAULSBORO VALERO,190965,1923 TEA BIGELOW GREEN TEA 28CT,1,4.02,Candy
2139664,10/14/2015,43567,PAULSBORO VALERO,196587,1925 CUPS/LIDS CHOCK CUPS 20OZ/1000CT,1,82.02,Candy
2139664,10/14/2015,43567,PAULSBORO VALERO,501277,1925 CUPS/LIDS COFFEE STIRRERS EXTRA LONG 1000 CT,3,6.57,Candy
2139664,10/14/2015,43567,PAULSBORO VALERO,190846,1925 CUPS/LIDS ISLAND BREW FILTERS DUAL (LARGE),1,11.6,Candy
2139664,10/14/2015,43567,PAULSBORO VALERO,193560,1925 CUPS/LIDS ISLAND CHILLER DOME LID 1000CT,1,51.3,Candy
2139664,10/14/2015,43567,PAULSBORO VALERO,194450,1925 CUPS/LIDS ROCKLINE COFFEE FILTERS #56-50B,1,11.03,Candy
2139664,10/14/2015,43567,PAULSBORO VALERO,190804,1926 CONDIMENTS INT'L DELIGHT FR.VANILLA 288CT,1,16.99,Candy
2139664,10/14/2015,43567,PAULSBORO VALERO,190803,1926 CONDIMENTS INT'L DELIGHT HAZELNUT 288CT,1,16.99,Candy
2139664,10/14/2015,43567,PAULSBORO VALERO,508607,1933 CHOCK CHOCK FRENCH VAN 100% ARABICA 30/2.7,1,46.49,Candy
2139664,10/14/2015,43567,PAULSBORO VALERO,508040,1933 CHOCK CHOCK FULL FRENCH VAN CAPPCINO 6/2LB,1,42,Candy
2139664,10/14/2015,43567,PAULSBORO VALERO,508039,1933 CHOCK CHOCK FULL HOT COCOA SUPREME 12/2LB,1,49.91,Candy
2139664,10/14/2015,43567,PAULSBORO VALERO,508569,1933 CHOCK CHOCK FULL NY ROAST BEAN 5/5LB,1,200.28,Candy
2139664,10/14/2015,43567,PAULSBORO VALERO,508038,1933 CHOCK CHOCK FULL UP W.SIDE DECAF 42/2.5oz,1,71.19,Candy
2139664,10/14/2015,43567,PAULSBORO VALERO,508606,1933 CHOCK CHOCK HAZELNUT 100% ARIBICA 30/2.75,1,46.49,Candy
2139664,10/14/2015,43567,PAULSBORO VALERO,199014,1903 AUTO CHEM SP STP ENGINE STOP LEAK 14.5OZ,3,9.33,Candy
2139664,10/14/2015,43567,PAULSBORO VALERO,199026,1903 AUTO CHEM SUNOCO ULTRA 10W40 MOTOR OIL 12/1QT,1,27.41,Candy
2139664,10/14/2015,43567,PAULSBORO VALERO,199028,1903 AUTO CHEM SUNOCO ULTRA 5W30 MOTOR OIL 12/1QT,1,27.69,Candy
2139664,10/14/2015,43567,PAULSBORO VALERO,195617,1903 AUTO CHEM WINDSHIELD WASH -PALLET 35 CASES,1,384.65,Candy
2139664,10/14/2015,43567,PAULSBORO VALERO,191172,1918 SP AUTOMTV SP SNAP FIX-A-FLAT W/HOSE 16OZ,3,14.85,Candy
2139664,10/14/2015,43567,PAULSBORO VALERO,310628,OFF-INVOICE PRO CONAGRA $1.00 OFF PROMO,-1,-1,Candy
2158929,10/21/2015,43567,PAULSBORO VALERO,65035,110 PREM NJ @CAMEL MENTHOL BOX $.75 OFF,1,65.26,Candy
2158929,10/21/2015,43567,PAULSBORO VALERO,65036,110 PREM NJ @CAMEL MENTHOL SILVER $.75 OFF,1,65.26,Candy
2159255,10/21/2015,43567,PAULSBORO VALERO,300505,300 BARS FERRERO ROCHER 3PC BOX 12CT,1,12.09,Candy
2159255,10/21/2015,43567,PAULSBORO VALERO,304998,300 BR18H REESES FAST BREAK 18CT,1,11.33,Candy
2159255,10/21/2015,43567,PAULSBORO VALERO,300413,300 SOUR PATCH SOUR PATCH 24CT KIDS,1,13.83,Candy
2159255,10/21/2015,43567,PAULSBORO VALERO,301842,306 COUGH DROPS VICKS 20CT MENTHOL,1,10.3,Candy
2159255,10/21/2015,43567,PAULSBORO VALERO,310786,307C GUM TRIDENT VAL/PK PEPPERMNT 12CT,1,8.69,Candy
2159255,10/21/2015,43567,PAULSBORO VALERO,306619,314 BAGS PEG SATHERS GUMMALOS PEACH RINGS 2/$1.5,1,62.92,Candy
2159255,10/21/2015,43567,PAULSBORO VALERO,310191,314 BAGS PEG SATHERS JU JU FISH 2/$1.50 12CT,1,6.18,Candy
2159255,10/21/2015,43567,PAULSBORO VALERO,305274,318 MINTS LISTERINE COOL MNT PKT PK 24'S 12CT,1,14.36,Candy
2159255,10/21/2015,43567,PAULSBORO VALERO,304002,318H MINTS I/B MINTS COOL MINT 8CT,1,11,Candy
2159255,10/21/2015,43567,PAULSBORO VALERO,309418,318T MINTS TIC TAC BIG PACK FRESHMINT 12CT,1,9.91,Candy
2159255,10/21/2015,43567,PAULSBORO VALERO,309419,318T MINTS TIC TAC BIG PACK POWERMINT 12CT,1,9.91,Candy
2159255,10/21/2015,43567,PAULSBORO VALERO,300016,318W MINTS LIFESAVER 20CT WINTOGREEN,1,9.37,Candy
2159255,10/21/2015,43567,PAULSBORO VALERO,304670,321 SP PEG/SNKS SP PRINGLES SC&ONION 5.96OZ,3,4.86,Candy
2159255,10/21/2015,43567,PAULSBORO VALERO,304679,321 SP PEG/SNKS SP SKITTLES ORIG PEG BAG 7.2oz,3,4.29,Candy
2159255,10/21/2015,43567,PAULSBORO VALERO,309916,331B NUTR SNK KELL SPEC K FRUIT CRISP STRAWBERRY 9,1,4.33,Candy
2159255,10/21/2015,43567,PAULSBORO VALERO,900304,900 HLTH & BTY TROJAN RIBBED LUBRICATED 6CT,1,9.95,Candy
2159255,10/21/2015,43567,PAULSBORO VALERO,900238,902 SP HBC SP SPEED STICK DEODORANT REGULAR 2OZ,3,6.75,Candy
2159255,10/21/2015,43567,PAULSBORO VALERO,62077,110 PREM NJ CAMEL CRUSH SILVER 85 BOX MEN,2,145.52,Candy
2159255,10/21/2015,43567,PAULSBORO VALERO,61297,110 PREM NJ KOOL BOX KING,1,72.76,Candy
2159255,10/21/2015,43567,PAULSBORO VALERO,61123,110 PREM NJ MARLBORO 100 BOX BP,2,145.56,Candy
2159255,10/21/2015,43567,PAULSBORO VALERO,65011,110 PREM NJ MARLBORO BLACK 100 BOX,1,72.78,Candy
2159255,10/21/2015,43567,PAULSBORO VALERO,65032,110 PREM NJ MARLBORO BLACK MEN 100 BX,1,72.78,Candy
2159255,10/21/2015,43567,PAULSBORO VALERO,61124,110 PREM NJ MARLBORO GOLD 100'S BX BP,1,72.78,Candy
2159255,10/21/2015,43567,PAULSBORO VALERO,61416,110 PREM NJ MARLBORO GOLD BX BP,3,218.34,Candy
2159255,10/21/2015,43567,PAULSBORO VALERO,61395,110 PREM NJ MARLBORO KING BOX BP,4,291.12,Candy
2159255,10/21/2015,43567,PAULSBORO VALERO,61427,110 PREM NJ MARLBORO MEN GOLD BX BP,1,72.78,Candy
2159255,10/21/2015,43567,PAULSBORO VALERO,61438,110 PREM NJ MARLBORO MEN KING BOX BP,1,72.78,Candy
2159255,10/21/2015,43567,PAULSBORO VALERO,61582,110 PREM NJ NEWPORT BOX,10,773.2,Candy
2159255,10/21/2015,43567,PAULSBORO VALERO,61150,110 PREM NJ NEWPORT BOX 100,30,2319.6,Candy
2159255,10/21/2015,43567,PAULSBORO VALERO,65106,110 PREM NJ NEWPORT MEN SMOOTH SELECT BOX 100S,1,77.32,Candy
2159255,10/21/2015,43567,PAULSBORO VALERO,63328,110 PREM NJ NEWPORT MENTHOL BLUE BOX 100,1,77.32,Candy
2159255,10/21/2015,43567,PAULSBORO VALERO,61593,110 PREM NJ NEWPORT MENTHOL GOLD BOX,1,77.32,Candy
2159255,10/21/2015,43567,PAULSBORO VALERO,64959,110 PREM NJ NEWPORT NON-MENTHOL BOX 100,1,62.92,Candy
2159255,10/21/2015,43567,PAULSBORO VALERO,61596,110 PREM NJ NEWPORT SOFT KING,1,77.32,Candy
2159255,10/21/2015,43567,PAULSBORO VALERO,63558,110 PREM NJ PARLIAMENT MEN SILVER BX BP,1,76.26,Candy
2159255,10/21/2015,43567,PAULSBORO VALERO,61652,110 PREM NJ PARLIAMENT WHITE BOX BP,1,76.26,Candy
2159255,10/21/2015,43567,PAULSBORO VALERO,63461,110 PREM NJ SALEM BX KS,1,72.76,Candy
2159255,10/21/2015,43567,PAULSBORO VALERO,63215,110 PREM NJ WINSTON RED 100 BOX,1,72.76,Candy
2159255,10/21/2015,43567,PAULSBORO VALERO,63320,111 DISC NJ PALL MALL MEN 100 BOX,2,137.04,Candy
2159255,10/21/2015,43567,PAULSBORO VALERO,63316,111 DISC NJ PALL MALL RED 100 BOX,1,68.52,Candy
2159255,10/21/2015,43567,PAULSBORO VALERO,64895,112 SUB GEN NJ FORTUNA MEN DARK GREEN 100'S BOX,1,55.49,Candy
2159255,10/21/2015,43567,PAULSBORO VALERO,64055,112 SUB GEN NJ MAVERICK BOX 100,3,179.01,Candy
2159255,10/21/2015,43567,PAULSBORO VALERO,64054,112 SUB GEN NJ MAVERICK BOX KING,1,59.67,Candy
2159255,10/21/2015,43567,PAULSBORO VALERO,64056,112 SUB GEN NJ MAVERICK MENTHOL BOX,2,119.34,Candy
2159255,10/21/2015,43567,PAULSBORO VALERO,64057,112 SUB GEN NJ MAVERICK MENTHOL BOX 100,8,477.36,Candy
2159255,10/21/2015,43567,PAULSBORO VALERO,170002,1803 BLACK MILD BLK&MLD CIGARS 10/5PK,1,30.46,Candy
2159255,10/21/2015,43567,PAULSBORO VALERO,177000,1860A GAME DSPL GAME CIGARIL.MANGO 2/$.99 30',1,18.9,Candy
2159255,10/21/2015,43567,PAULSBORO VALERO,153694,1507A SNUS TOB CAMEL SNUS FROST LARGE 5CT,1,13.2,Candy
2159255,10/21/2015,43567,PAULSBORO VALERO,509147,1301B C&C COLA C&C GINGERALE 2LTR 8CT,1,7.2,Candy
2159255,10/21/2015,43567,PAULSBORO VALERO,500290,1303 WATER POLAND SPRING 12/1.5 LITR,1,11.52,Candy
2159255,10/21/2015,43567,PAULSBORO VALERO,506604,1303 WATER POLAND SPRING 28/24OZ NON DEPOSIT,2,24.56,Candy
2159255,10/21/2015,43567,PAULSBORO VALERO,501594,1304 DRINKS GATORADE FROST GLACIER FREEZE 12/32,1,14.99,Candy
2159255,10/21/2015,43567,PAULSBORO VALERO,17,600 WEB SPECIAL TELXON ORDER - NO CHARGE,1,0,Candy
2159255,10/21/2015,43567,PAULSBORO VALERO,500774,501A 24CT SP A&H BAKE/SODA 16OZ,3,2.4,Candy
2159255,10/21/2015,43567,PAULSBORO VALERO,501703,501A 24CT SP TOP RAMEN NDLS ORIENTAL 3OZ,3,0.96,Candy
2159255,10/21/2015,43567,PAULSBORO VALERO,500595,501A 48CT SP LIBBY VIENNA SAUSAGE 4.6OZ,3,2.25,Candy
2159255,10/21/2015,43567,PAULSBORO VALERO,501693,501A SP GROCERY SP AJ COMPLETE PANCAKE MIX 16OZ,3,5.19,Candy
2159255,10/21/2015,43567,PAULSBORO VALERO,500679,501A SP GROCERY SP AJ PANCAKE SYRUP 12OZ,3,7.26,Candy
2159255,10/21/2015,43567,PAULSBORO VALERO,504631,501A SP GROCERY SP CB MICRO SPAG & MEATBALL 7.5OZ,3,3.45,Candy
2159255,10/21/2015,43567,PAULSBORO VALERO,500599,501A SP GROCERY SP DINTY MOORE BEEF STEW 15OZ,3,5.88,Candy
2159255,10/21/2015,43567,PAULSBORO VALERO,500725,501A SP GROCERY SP KELL FROOT LOOPS 8.7OZ SP,3,11.01,Candy
2159255,10/21/2015,43567,PAULSBORO VALERO,500720,501A SP GROCERY SP LIPTON CUP CHKN NDL 4PK,3,3.9,Candy
2159255,10/21/2015,43567,PAULSBORO VALERO,503168,501B 12CT SP PEDIGREE CHOICE CT BEEF 13.2OZ,3,2.94,Candy
2159255,10/21/2015,43567,PAULSBORO VALERO,500616,501B 6CT SP 9 LIVES Tuna & Egg 5.5oz 4PK,3,6.66,Candy
2159255,10/21/2015,43567,PAULSBORO VALERO,503662,501B 6CT SP PURINA DOG CHOW 4.4LB,3,15.87,Candy
2159255,10/21/2015,43567,PAULSBORO VALERO,503664,501B 6CT SP PURINA PUPPY CHOW 4.4LB,3,17.22,Candy
2159255,10/21/2015,43567,PAULSBORO VALERO,501649,531 PAPER PROD BOUNTY BUNDLE PACK 15/1'S,1,16.89,Candy
2159255,10/21/2015,43567,PAULSBORO VALERO,506214,531 PAPER PROD SCOTT BATH TISSUE 36CT BUNDLE PACK,1,24.6,Candy
2159255,10/21/2015,43567,PAULSBORO VALERO,502171,565 DOLLAR STOR PAPER TOWELS SINGLE ROLL 30/1,1,20.7,Candy
2159255,10/21/2015,43567,PAULSBORO VALERO,503554,554 FOOD SV FRZ SP HOT POCKETS PEP PIZZA 8OZ,3,5.34,Candy
2159255,10/21/2015,43567,PAULSBORO VALERO,302841,304 COOKIES KELL.POPTART BLUEBERRY S/S 6CT,1,3.28,Candy
2159255,10/21/2015,43567,PAULSBORO VALERO,307018,304 SP NAB COOK SP NAB Conv Ritz Crackers SP,3,4.5,Candy
2159255,10/21/2015,43567,PAULSBORO VALERO,307019,304 SP NAB COOK SP NAB Conv Wheat Thins SP,3,4.5,Candy
2159255,10/21/2015,43567,PAULSBORO VALERO,311853,304NAB COOKIES NAB CHIPS AHOY BRWNIE FILL KING 8CT,2,16.5,Candy
2159255,10/21/2015,43567,PAULSBORO VALERO,300393,304NAB COOKIES NAB S/S NUTTER BUTTER 12CT,1,5.1,Candy
2159255,10/21/2015,43567,PAULSBORO VALERO,309647,319 SALTY SNKS CHEX MIX TRADITIONAL 8CT,1,8.11,Candy
2159255,10/21/2015,43567,PAULSBORO VALERO,301642,319 SALTY SNKS COMBOS 1.8OZ CHEDDAR 18CT,1,8.27,Candy
2159255,10/21/2015,43567,PAULSBORO VALERO,301109,319 SP DAVID SK SP DAVID & SON PUMPKIN SEED 2.5 OZ,3,3.66,Candy
2159255,10/21/2015,43567,PAULSBORO VALERO,304602,319 SP DAVID SK SP DAVID SUNFLOWER RANCH 5.25OZ,3,3.06,Candy
2159255,10/21/2015,43567,PAULSBORO VALERO,308447,319 SP PLNTR SK SP PLANTERS SALTED PNUTS B B 6OZ,3,3.87,Candy
2159255,10/21/2015,43567,PAULSBORO VALERO,312446,319D DAVID SNK SUNFLOWER SEEDS RANCH 1.625OZ/12CT,1,4.34,Candy
2159255,10/21/2015,43567,PAULSBORO VALERO,303061,319P PLNTR SNK PLANTERS TUBE SALTED PEANUT 18CT,1,6.11,Candy
2159255,10/21/2015,43567,PAULSBORO VALERO,306287,319T POORE SNK TGI FRIDAY MOZZ STICKS 6/2.25OZ,1,7.32,Candy
2159255,10/21/2015,43567,PAULSBORO VALERO,310288,319T POORE SNK TGI FRIDAY ONION RINGS 6/2OZ,1,7.32,Candy
2159255,10/21/2015,43567,PAULSBORO VALERO,306277,332 MEAT SNKS SLIM JIM GIANT NACHO 24CT,1,18.79,Candy
2159255,10/21/2015,43567,PAULSBORO VALERO,190804,1926 CONDIMENTS INT'L DELIGHT FR.VANILLA 288CT,1,16.99,Candy
2159255,10/21/2015,43567,PAULSBORO VALERO,509256,1926 CONDIMENTS PERFECT SERV SUGAR 6/3LB,1,37.95,Candy
2159255,10/21/2015,43567,PAULSBORO VALERO,192704,1903 AUTO CHEM CAR-FRESH BLACK ICE 1PK 24CT,1,12.27,Candy
2159255,10/21/2015,43567,PAULSBORO VALERO,190009,1903 AUTO CHEM CAR-FRESH PUMP 24/2Z,1,31.19,Candy
2159255,10/21/2015,43567,PAULSBORO VALERO,199024,1903 AUTO CHEM SUNOCO ULTRA 5W20 MOTOR OIL 12/1QT,1,27.44,Candy
2163616,10/21/2015,43567,PAULSBORO VALERO,61127,110 PREM NJ CAMEL WIDE BOX,1,72.76,Candy
2163616,10/21/2015,43567,PAULSBORO VALERO,64059,112 SUB GEN NJ MAVERICK MENTHOL GOLD BOX 100,1,59.67,Candy
2163616,10/21/2015,43567,PAULSBORO VALERO,17,600 WEB SPECIAL TELXON ORDER - NO CHARGE,1,59.67,Candy
2172290,10/23/2015,43567,PAULSBORO VALERO,196502,1900 MISCELLANS HEINZ -UPSIDE DOWN- CONDIMENT RACK,1,59.67,Candy
2172290,10/23/2015,43567,PAULSBORO VALERO,193058,1927 EQUIPMENT CREATIVE SERV 24 CAP ROLLER GRILL,1,925,Candy
2172290,10/23/2015,43567,PAULSBORO VALERO,193059,1927 EQUIPMENT CREATIVE SERV NON HEATED BUN DRAWER,1,925,Candy
2172290,10/23/2015,43567,PAULSBORO VALERO,193060,1927 EQUIPMENT CREATIVE SERV SNEEZE GUARD,1,925,Candy
2172298,10/23/2015,43567,PAULSBORO VALERO,191013,1911 NATHANS HD NATHAN'S SKINLESS FRANKS 7/1 10LB,5,925,Candy
2172298,10/23/2015,43567,PAULSBORO VALERO,506380,1932 NATHANS BM NATHAN'S HOT DOG CLAMSHELL 500CT,1,925,Candy
2172298,10/23/2015,43567,PAULSBORO VALERO,509153,554 FOOD SV FRZ HOT DOG BUNS IW 56CT,1,925,Candy
2172298,10/23/2015,43567,PAULSBORO VALERO,502857,554 FOOD SV FRZ ROLLERBITES CHEESEBURGER 40/2.5OZ,1,925,Candy
2172298,10/23/2015,43567,PAULSBORO VALERO,505024,554 FOOD SV FRZ TORNADOS SOUTHWEST CHICKEN 24CT,1,925,Candy
2172298,10/23/2015,43567,PAULSBORO VALERO,505468,561 FD SVC-DRY SP HEINZ KETCHUP-UPSIDE DOWN 20OZ,1,925,Candy
2172298,10/23/2015,43567,PAULSBORO VALERO,505471,561 FD SVC-DRY SP HEINZ SQUEEZE RELISH 12oz,1,925,Candy
2172298,10/23/2015,43567,PAULSBORO VALERO,505469,561 FD SVC-DRY SP HEINZ YELLOW MUST UPSDE DWN 20OZ,1,925,Candy
